%!PS-Adobe-2.0 EPSF-2.0
%%Title: bigfig.fig
%%Creator: fig2dev Version 3.2 Patchlevel 5
%%CreationDate: Sat Apr 10 22:13:31 2010
%%For: winkler@regnitz.physics.niu.edu (Roland Winkler,,,,)
%%BoundingBox: 0 0 501 185
%Magnification: 1.0000
%%EndComments
%%BeginProlog
/$F2psDict 200 dict def
$F2psDict begin
$F2psDict /mtrx matrix put
/col-1 {0 setgray} bind def
/col0 {0.000 0.000 0.000 srgb} bind def
/col1 {0.000 0.000 1.000 srgb} bind def
/col2 {0.000 1.000 0.000 srgb} bind def
/col3 {0.000 1.000 1.000 srgb} bind def
/col4 {1.000 0.000 0.000 srgb} bind def
/col5 {1.000 0.000 1.000 srgb} bind def
/col6 {1.000 1.000 0.000 srgb} bind def
/col7 {1.000 1.000 1.000 srgb} bind def
/col8 {0.000 0.000 0.560 srgb} bind def
/col9 {0.000 0.000 0.690 srgb} bind def
/col10 {0.000 0.000 0.820 srgb} bind def
/col11 {0.530 0.810 1.000 srgb} bind def
/col12 {0.000 0.560 0.000 srgb} bind def
/col13 {0.000 0.690 0.000 srgb} bind def
/col14 {0.000 0.820 0.000 srgb} bind def
/col15 {0.000 0.560 0.560 srgb} bind def
/col16 {0.000 0.690 0.690 srgb} bind def
/col17 {0.000 0.820 0.820 srgb} bind def
/col18 {0.560 0.000 0.000 srgb} bind def
/col19 {0.690 0.000 0.000 srgb} bind def
/col20 {0.820 0.000 0.000 srgb} bind def
/col21 {0.560 0.000 0.560 srgb} bind def
/col22 {0.690 0.000 0.690 srgb} bind def
/col23 {0.820 0.000 0.820 srgb} bind def
/col24 {0.500 0.190 0.000 srgb} bind def
/col25 {0.630 0.250 0.000 srgb} bind def
/col26 {0.750 0.380 0.000 srgb} bind def
/col27 {1.000 0.500 0.500 srgb} bind def
/col28 {1.000 0.630 0.630 srgb} bind def
/col29 {1.000 0.750 0.750 srgb} bind def
/col30 {1.000 0.880 0.880 srgb} bind def
/col31 {1.000 0.840 0.000 srgb} bind def

end

/cp {closepath} bind def
/ef {eofill} bind def
/gr {grestore} bind def
/gs {gsave} bind def
/sa {save} bind def
/rs {restore} bind def
/l {lineto} bind def
/m {moveto} bind def
/rm {rmoveto} bind def
/n {newpath} bind def
/s {stroke} bind def
/sh {show} bind def
/slc {setlinecap} bind def
/slj {setlinejoin} bind def
/slw {setlinewidth} bind def
/srgb {setrgbcolor} bind def
/rot {rotate} bind def
/sc {scale} bind def
/sd {setdash} bind def
/ff {findfont} bind def
/sf {setfont} bind def
/scf {scalefont} bind def
/sw {stringwidth} bind def
/tr {translate} bind def
/tnt {dup dup currentrgbcolor
  4 -2 roll dup 1 exch sub 3 -1 roll mul add
  4 -2 roll dup 1 exch sub 3 -1 roll mul add
  4 -2 roll dup 1 exch sub 3 -1 roll mul add srgb}
  bind def
/shd {dup dup currentrgbcolor 4 -2 roll mul 4 -2 roll mul
  4 -2 roll mul srgb} bind def
/$F2psBegin {$F2psDict begin /$F2psEnteredState save def} def
/$F2psEnd {$F2psEnteredState restore end} def

/pageheader {
save
newpath 0 185 moveto 0 0 lineto 501 0 lineto 501 185 lineto closepath clip newpath
-59.1 199.3 translate
1 -1 scale
$F2psBegin
10 setmiterlimit
0 slj 0 slc
 0.06000 0.06000 sc
} bind def
/pagefooter {
$F2psEnd
restore
} bind def
%%EndProlog
pageheader
%
% Fig objects follow
%
% 
% here starts figure with depth 64
%  polyline 
% Polyline
1 slj
1 slc
7.500 slw
n 5871 2516 m
 5871 2599 l gs col17 s gr 
%  polyline 
% Polyline
n 5871 2559 m 5883 2548 l 5891 2544 l 5903 2544 l 5911 2548 l 5915 2559 l

 5915 2599 l gs col17 s gr 
%  polyline 
% Polyline
n 5942 2567 m 5990 2567 l 5990 2559 l 5986 2551 l 5982 2548 l 5974 2544 l
 5962 2544 l 5954 2548 l 5946 2556 l 5942 2567 l 5942 2575 l
 5946 2587 l 5954 2595 l 5962 2599 l 5974 2599 l 5982 2595 l

 5990 2587 l gs col17 s gr 
%  polyline 
% Polyline
n 6022 2516 m 6022 2583 l 6026 2595 l 6034 2599 l
 6041 2599 l gs col17 s gr 
%  polyline 
% Polyline
n 6010 2544 m
 6038 2544 l gs col17 s gr 
%  polyline 
% Polyline
n 6061 2567 m 6109 2567 l 6109 2559 l 6105 2551 l 6101 2548 l 6093 2544 l
 6081 2544 l 6073 2548 l 6065 2556 l 6061 2567 l 6061 2575 l
 6065 2587 l 6073 2595 l 6081 2599 l 6093 2599 l 6101 2595 l

 6109 2587 l gs col17 s gr 
%  polyline 
% Polyline
n 6137 2544 m
 6137 2599 l gs col17 s gr 
%  polyline 
% Polyline
n 6137 2567 m 6141 2556 l 6149 2548 l 6157 2544 l
 6168 2544 l gs col17 s gr 
%  polyline 
% Polyline
n 6204 2544 m 6196 2548 l 6188 2556 l 6184 2567 l 6184 2575 l 6188 2587 l
 6196 2595 l 6204 2599 l 6216 2599 l 6224 2595 l 6232 2587 l
 6236 2575 l 6236 2567 l 6232 2556 l 6224 2548 l 6216 2544 l

 6204 2544 l  cp gs col17 s gr 
%  polyline 
% Polyline
n 6303 2556 m 6299 2548 l 6287 2544 l 6275 2544 l 6263 2548 l 6260 2556 l
 6263 2563 l 6271 2567 l 6291 2571 l 6299 2575 l 6303 2583 l
 6303 2587 l 6299 2595 l 6287 2599 l 6275 2599 l 6264 2595 l

 6260 2587 l gs col17 s gr 
%  polyline 
% Polyline
n 6335 2516 m 6335 2583 l 6339 2595 l 6347 2599 l
 6355 2599 l gs col17 s gr 
%  polyline 
% Polyline
n 6323 2544 m
 6351 2544 l gs col17 s gr 
%  polyline 
% Polyline
n 6379 2544 m
 6379 2599 l gs col17 s gr 
%  polyline 
% Polyline
n 6379 2567 m 6383 2556 l 6391 2548 l 6398 2544 l
 6410 2544 l gs col17 s gr 
%  polyline 
% Polyline
n 6434 2591 m 6430 2595 l 6434 2599 l 6438 2595 l
 6434 2591 l  cp gs col17 s gr 
%  polyline 
% Polyline
0 slc
 [60 24 15 18 15 18 15 24 ] 0 sd
n 5497 2570 m
 5799 2570 l gs col17 s gr  [] 0 sd
%  polyline 
% Polyline
1 slc
n 8511 2516 m
 8511 2599 l gs col17 s gr 
%  polyline 
% Polyline
n 8511 2559 m 8523 2548 l 8531 2544 l 8543 2544 l 8551 2548 l 8555 2559 l

 8555 2599 l gs col17 s gr 
%  polyline 
% Polyline
n 8582 2567 m 8630 2567 l 8630 2559 l 8626 2551 l 8622 2548 l 8614 2544 l
 8602 2544 l 8594 2548 l 8586 2556 l 8582 2567 l 8582 2575 l
 8586 2587 l 8594 2595 l 8602 2599 l 8614 2599 l 8622 2595 l

 8630 2587 l gs col17 s gr 
%  polyline 
% Polyline
n 8662 2516 m 8662 2583 l 8666 2595 l 8674 2599 l
 8681 2599 l gs col17 s gr 
%  polyline 
% Polyline
n 8650 2544 m
 8678 2544 l gs col17 s gr 
%  polyline 
% Polyline
n 8701 2567 m 8749 2567 l 8749 2559 l 8745 2551 l 8741 2548 l 8733 2544 l
 8721 2544 l 8713 2548 l 8705 2556 l 8701 2567 l 8701 2575 l
 8705 2587 l 8713 2595 l 8721 2599 l 8733 2599 l 8741 2595 l

 8749 2587 l gs col17 s gr 
%  polyline 
% Polyline
n 8777 2544 m
 8777 2599 l gs col17 s gr 
%  polyline 
% Polyline
n 8777 2567 m 8781 2556 l 8789 2548 l 8797 2544 l
 8808 2544 l gs col17 s gr 
%  polyline 
% Polyline
n 8844 2544 m 8836 2548 l 8828 2556 l 8824 2567 l 8824 2575 l 8828 2587 l
 8836 2595 l 8844 2599 l 8856 2599 l 8864 2595 l 8872 2587 l
 8876 2575 l 8876 2567 l 8872 2556 l 8864 2548 l 8856 2544 l

 8844 2544 l  cp gs col17 s gr 
%  polyline 
% Polyline
n 8943 2556 m 8939 2548 l 8927 2544 l 8915 2544 l 8903 2548 l 8900 2556 l
 8903 2563 l 8911 2567 l 8931 2571 l 8939 2575 l 8943 2583 l
 8943 2587 l 8939 2595 l 8927 2599 l 8915 2599 l 8903 2595 l

 8900 2587 l gs col17 s gr 
%  polyline 
% Polyline
n 8975 2516 m 8975 2583 l 8979 2595 l 8987 2599 l
 8995 2599 l gs col17 s gr 
%  polyline 
% Polyline
n 8963 2544 m
 8991 2544 l gs col17 s gr 
%  polyline 
% Polyline
n 9019 2544 m
 9019 2599 l gs col17 s gr 
%  polyline 
% Polyline
n 9019 2567 m 9023 2556 l 9031 2548 l 9038 2544 l
 9050 2544 l gs col17 s gr 
%  polyline 
% Polyline
n 9074 2591 m 9070 2595 l 9074 2599 l 9078 2595 l
 9074 2591 l  cp gs col17 s gr 
%  polyline 
% Polyline
0 slc
 [60 24 15 18 15 18 15 24 ] 0 sd
n 8137 2570 m
 8439 2570 l gs col17 s gr  [] 0 sd
%  polyline 
% Polyline
1 slc
n 3233 2516 m
 3233 2599 l gs col17 s gr 
%  polyline 
% Polyline
n 3233 2559 m 3245 2548 l 3253 2544 l 3265 2544 l 3273 2548 l 3277 2559 l

 3277 2599 l gs col17 s gr 
%  polyline 
% Polyline
n 3304 2567 m 3352 2567 l 3352 2559 l 3348 2551 l 3344 2548 l 3336 2544 l
 3324 2544 l 3316 2548 l 3308 2556 l 3304 2567 l 3304 2575 l
 3308 2587 l 3316 2595 l 3324 2599 l 3336 2599 l 3344 2595 l

 3352 2587 l gs col17 s gr 
%  polyline 
% Polyline
n 3384 2516 m 3384 2583 l 3388 2595 l 3396 2599 l
 3403 2599 l gs col17 s gr 
%  polyline 
% Polyline
n 3372 2544 m
 3400 2544 l gs col17 s gr 
%  polyline 
% Polyline
n 3423 2567 m 3471 2567 l 3471 2559 l 3467 2551 l 3463 2548 l 3455 2544 l
 3443 2544 l 3435 2548 l 3427 2556 l 3423 2567 l 3423 2575 l
 3427 2587 l 3435 2595 l 3443 2599 l 3455 2599 l 3463 2595 l

 3471 2587 l gs col17 s gr 
%  polyline 
% Polyline
n 3499 2544 m
 3499 2599 l gs col17 s gr 
%  polyline 
% Polyline
n 3499 2567 m 3503 2556 l 3511 2548 l 3519 2544 l
 3530 2544 l gs col17 s gr 
%  polyline 
% Polyline
n 3566 2544 m 3558 2548 l 3550 2556 l 3546 2567 l 3546 2575 l 3550 2587 l
 3558 2595 l 3566 2599 l 3578 2599 l 3586 2595 l 3594 2587 l
 3598 2575 l 3598 2567 l 3594 2556 l 3586 2548 l 3578 2544 l

 3566 2544 l  cp gs col17 s gr 
%  polyline 
% Polyline
n 3665 2556 m 3661 2548 l 3649 2544 l 3637 2544 l 3625 2548 l 3622 2556 l
 3625 2563 l 3633 2567 l 3653 2571 l 3661 2575 l 3665 2583 l
 3665 2587 l 3661 2595 l 3649 2599 l 3637 2599 l 3626 2595 l

 3622 2587 l gs col17 s gr 
%  polyline 
% Polyline
n 3697 2516 m 3697 2583 l 3701 2595 l 3709 2599 l
 3717 2599 l gs col17 s gr 
%  polyline 
% Polyline
n 3685 2544 m
 3713 2544 l gs col17 s gr 
%  polyline 
% Polyline
n 3741 2544 m
 3741 2599 l gs col17 s gr 
%  polyline 
% Polyline
n 3741 2567 m 3745 2556 l 3753 2548 l 3760 2544 l
 3772 2544 l gs col17 s gr 
%  polyline 
% Polyline
n 3796 2591 m 3792 2595 l 3796 2599 l 3800 2595 l
 3796 2591 l  cp gs col17 s gr 
%  polyline 
% Polyline
0 slc
 [60 24 15 18 15 18 15 24 ] 0 sd
n 2859 2570 m
 3161 2570 l gs col17 s gr  [] 0 sd
%  polyline 
% Polyline
 [60 24 15 18 15 18 15 24 ] 0 sd
n 2196 2396 m 2257 2154 l 2317 1999 l 2377 1877 l 2438 1777 l 2498 1692 l
 2558 1615 l 2619 1547 l 2679 1485 l 2740 1427 l 2800 1373 l
 2860 1325 l 2921 1279 l 2981 1234 l
 3041 1194 l gs col17 s gr  [] 0 sd
%  polyline 
% Polyline
 [60 24 15 18 15 18 15 24 ] 0 sd
n 4286 2279 m 4347 2028 l 4407 1866 l 4467 1740 l 4528 1637 l 4588 1551 l
 4648 1476 l 4709 1410 l 4769 1350 l 4830 1295 l 4890 1245 l
 4950 1200 l 5011 1157 l 5071 1117 l
 5131 1080 l gs col17 s gr  [] 0 sd
%  polyline 
% Polyline
 [60 24 15 18 15 18 15 24 ] 0 sd
n 7196 2654 m 7257 2506 l 7317 2442 l 7377 2390 l 7438 2389 l 7498 2302 l
 7558 2189 l 7619 2070 l 7679 1956 l 7740 1849 l 7800 1747 l
 7860 1660 l 7921 1575 l 7981 1498 l
 8041 1425 l gs col17 s gr  [] 0 sd
%  polyline 
% Polyline
1 slc
n 3229 2288 m 3245 2344 l 3261 2288 l 3277 2344 l
 3292 2288 l gs col2 s gr 
%  polyline 
% Polyline
n 3316 2312 m 3364 2312 l 3364 2304 l 3360 2296 l 3356 2292 l 3348 2288 l
 3336 2288 l 3328 2292 l 3320 2300 l 3316 2312 l 3316 2320 l
 3320 2332 l 3328 2340 l 3336 2344 l 3348 2344 l 3356 2340 l

 3364 2332 l gs col2 s gr 
%  polyline 
% Polyline
n 3392 2261 m
 3392 2344 l gs col2 s gr 
%  polyline 
% Polyline
n 3423 2261 m
 3423 2344 l gs col2 s gr 
%  polyline 
% Polyline
n 3522 2261 m 3566 2261 l 3542 2292 l 3554 2292 l 3562 2296 l 3566 2300 l
 3570 2312 l 3570 2320 l 3566 2332 l 3558 2340 l 3546 2344 l
 3534 2344 l 3522 2340 l 3519 2336 l
 3514 2328 l gs col2 s gr 
%  polyline 
% Polyline
n 3618 2261 m 3606 2265 l 3598 2276 l 3594 2296 l 3594 2308 l 3598 2328 l
 3606 2340 l 3618 2344 l 3625 2344 l 3637 2340 l 3645 2328 l
 3649 2308 l 3649 2296 l 3645 2276 l 3637 2265 l 3625 2261 l

 3618 2261 l  cp gs col2 s gr 
%  polyline 
% Polyline
n 3697 2261 m 3685 2265 l 3677 2276 l 3673 2296 l 3673 2308 l 3677 2328 l
 3685 2340 l 3697 2344 l 3705 2344 l 3717 2340 l 3725 2328 l
 3729 2308 l 3729 2296 l 3725 2276 l 3717 2265 l 3705 2261 l

 3697 2261 l  cp gs col2 s gr 
%  polyline 
% Polyline
n 3820 2316 m
 3859 2316 l gs col2 s gr 
%  polyline 
% Polyline
n 3871 2344 m 3840 2261 l
 3808 2344 l gs col2 s gr 
%  polyline 
% Polyline
n 3840 2233 m 3848 2237 l 3848 2245 l 3840 2249 l 3832 2245 l 3832 2237 l

 3840 2233 l  cp gs col2 s gr 
%  polyline 
% Polyline
0 slc
 [60 27 15 20 15 27] 0 sd
n 2859 2315 m
 3161 2315 l gs col2 s gr  [] 0 sd
%  polyline 
% Polyline
1 slc
n 5867 2288 m 5883 2344 l 5899 2288 l 5915 2344 l
 5930 2288 l gs col2 s gr 
%  polyline 
% Polyline
n 5954 2312 m 6002 2312 l 6002 2304 l 5998 2296 l 5994 2292 l 5986 2288 l
 5974 2288 l 5966 2292 l 5958 2300 l 5954 2312 l 5954 2320 l
 5958 2332 l 5966 2340 l 5974 2344 l 5986 2344 l 5994 2340 l

 6002 2332 l gs col2 s gr 
%  polyline 
% Polyline
n 6030 2261 m
 6030 2344 l gs col2 s gr 
%  polyline 
% Polyline
n 6061 2261 m
 6061 2344 l gs col2 s gr 
%  polyline 
% Polyline
n 6160 2261 m 6204 2261 l 6180 2292 l 6192 2292 l 6200 2296 l 6204 2300 l
 6208 2312 l 6208 2320 l 6204 2332 l 6196 2340 l 6184 2344 l
 6172 2344 l 6160 2340 l 6157 2336 l
 6152 2328 l gs col2 s gr 
%  polyline 
% Polyline
n 6256 2261 m 6244 2265 l 6236 2276 l 6232 2296 l 6232 2308 l 6236 2328 l
 6244 2340 l 6256 2344 l 6263 2344 l 6275 2340 l 6283 2328 l
 6287 2308 l 6287 2296 l 6283 2276 l 6275 2265 l 6263 2261 l

 6256 2261 l  cp gs col2 s gr 
%  polyline 
% Polyline
n 6335 2261 m 6323 2265 l 6315 2276 l 6311 2296 l 6311 2308 l 6315 2328 l
 6323 2340 l 6335 2344 l 6343 2344 l 6355 2340 l 6363 2328 l
 6367 2308 l 6367 2296 l 6363 2276 l 6355 2265 l 6343 2261 l

 6335 2261 l  cp gs col2 s gr 
%  polyline 
% Polyline
n 6458 2316 m
 6497 2316 l gs col2 s gr 
%  polyline 
% Polyline
n 6509 2344 m 6478 2261 l
 6446 2344 l gs col2 s gr 
%  polyline 
% Polyline
n 6478 2233 m 6486 2237 l 6486 2245 l 6478 2249 l 6470 2245 l 6470 2237 l

 6478 2233 l  cp gs col2 s gr 
%  polyline 
% Polyline
0 slc
 [60 27 15 20 15 27] 0 sd
n 5497 2315 m
 5799 2315 l gs col2 s gr  [] 0 sd
%  polyline 
% Polyline
1 slc
n 8507 2288 m 8523 2344 l 8539 2288 l 8555 2344 l
 8570 2288 l gs col2 s gr 
%  polyline 
% Polyline
n 8594 2312 m 8642 2312 l 8642 2304 l 8638 2296 l 8634 2292 l 8626 2288 l
 8614 2288 l 8606 2292 l 8598 2300 l 8594 2312 l 8594 2320 l
 8598 2332 l 8606 2340 l 8614 2344 l 8626 2344 l 8634 2340 l

 8642 2332 l gs col2 s gr 
%  polyline 
% Polyline
n 8670 2261 m
 8670 2344 l gs col2 s gr 
%  polyline 
% Polyline
n 8701 2261 m
 8701 2344 l gs col2 s gr 
%  polyline 
% Polyline
n 8800 2261 m 8844 2261 l 8820 2292 l 8832 2292 l 8840 2296 l 8844 2300 l
 8848 2312 l 8848 2320 l 8844 2332 l 8836 2340 l 8824 2344 l
 8812 2344 l 8800 2340 l 8797 2336 l
 8792 2328 l gs col2 s gr 
%  polyline 
% Polyline
n 8896 2261 m 8884 2265 l 8876 2276 l 8872 2296 l 8872 2308 l 8876 2328 l
 8884 2340 l 8896 2344 l 8903 2344 l 8915 2340 l 8923 2328 l
 8927 2308 l 8927 2296 l 8923 2276 l 8915 2265 l 8903 2261 l

 8896 2261 l  cp gs col2 s gr 
%  polyline 
% Polyline
n 8975 2261 m 8963 2265 l 8955 2276 l 8951 2296 l 8951 2308 l 8955 2328 l
 8963 2340 l 8975 2344 l 8983 2344 l 8995 2340 l 9003 2328 l
 9007 2308 l 9007 2296 l 9003 2276 l 8995 2265 l 8983 2261 l

 8975 2261 l  cp gs col2 s gr 
%  polyline 
% Polyline
n 9098 2316 m
 9137 2316 l gs col2 s gr 
%  polyline 
% Polyline
n 9149 2344 m 9118 2261 l
 9086 2344 l gs col2 s gr 
%  polyline 
% Polyline
n 9118 2233 m 9126 2237 l 9126 2245 l 9118 2249 l 9110 2245 l 9110 2237 l

 9118 2233 l  cp gs col2 s gr 
%  polyline 
% Polyline
0 slc
 [60 27 15 20 15 27] 0 sd
n 8137 2315 m
 8439 2315 l gs col2 s gr  [] 0 sd
%  polyline 
% Polyline
 [60 27 15 20 15 27] 0 sd
n 6869 2900 m 6930 2776 l 6990 2719 l 7050 2674 l 7111 2685 l 7171 2590 l
 7231 2471 l 7292 2352 l 7352 2234 l 7413 2127 l 7473 2028 l
 7533 1936 l 7594 1852 l 7654 1773 l 7714 1702 l
 7775 1640 l gs col2 s gr  [] 0 sd
%  polyline 
% Polyline
 [60 27 15 20 15 27] 0 sd
n 1834 2391 m 1895 2154 l 1955 2002 l 2015 1883 l 2076 1786 l 2136 1700 l
 2196 1624 l 2257 1557 l 2317 1493 l 2378 1437 l 2438 1385 l
 2498 1335 l 2559 1288 l 2619 1245 l 2679 1203 l
 2740 1165 l gs col2 s gr  [] 0 sd
%  polyline 
% Polyline
 [60 27 15 20 15 27] 0 sd
n 4917 2342 m 4978 2094 l 5038 1934 l 5098 1812 l 5159 1711 l 5219 1625 l
 5279 1551 l 5340 1486 l 5400 1425 l 5461 1372 l 5521 1322 l
 5581 1277 l 5642 1233 l 5702 1194 l 5762 1156 l
 5823 1122 l gs col2 s gr  [] 0 sd
%  polyline 
% Polyline
1 slc
n 3229 2033 m 3245 2089 l 3261 2033 l 3277 2089 l
 3292 2033 l gs col4 s gr 
%  polyline 
% Polyline
n 3316 2057 m 3364 2057 l 3364 2049 l 3360 2041 l 3356 2037 l 3348 2033 l
 3336 2033 l 3328 2037 l 3320 2045 l 3316 2057 l 3316 2065 l
 3320 2077 l 3328 2085 l 3336 2089 l 3348 2089 l 3356 2085 l

 3364 2077 l gs col4 s gr 
%  polyline 
% Polyline
n 3392 2005 m
 3392 2089 l gs col4 s gr 
%  polyline 
% Polyline
n 3423 2005 m
 3423 2089 l gs col4 s gr 
%  polyline 
% Polyline
n 3519 2025 m 3519 2021 l 3522 2013 l 3526 2010 l 3534 2005 l 3550 2005 l
 3558 2010 l 3562 2013 l 3566 2021 l 3566 2029 l 3562 2037 l
 3554 2049 l 3514 2089 l
 3570 2089 l gs col4 s gr 
%  polyline 
% Polyline
n 3618 2005 m 3606 2010 l 3598 2021 l 3594 2041 l 3594 2053 l 3598 2073 l
 3606 2085 l 3618 2089 l 3625 2089 l 3637 2085 l 3645 2073 l
 3649 2053 l 3649 2041 l 3645 2021 l 3637 2010 l 3625 2005 l

 3618 2005 l  cp gs col4 s gr 
%  polyline 
% Polyline
n 3697 2005 m 3685 2010 l 3677 2021 l 3673 2041 l 3673 2053 l 3677 2073 l
 3685 2085 l 3697 2089 l 3705 2089 l 3717 2085 l 3725 2073 l
 3729 2053 l 3729 2041 l 3725 2021 l 3717 2010 l 3705 2005 l

 3697 2005 l  cp gs col4 s gr 
%  polyline 
% Polyline
n 3820 2061 m
 3859 2061 l gs col4 s gr 
%  polyline 
% Polyline
n 3871 2089 m 3840 2005 l
 3808 2089 l gs col4 s gr 
%  polyline 
% Polyline
n 3840 1978 m 3848 1982 l 3848 1990 l 3840 1994 l 3832 1990 l 3832 1982 l

 3840 1978 l  cp gs col4 s gr 
%  polyline 
% Polyline
0 slc
 [60 30 15 30] 0 sd
n 2859 2060 m
 3161 2060 l gs col4 s gr  [] 0 sd
%  polyline 
% Polyline
1 slc
n 5867 2033 m 5883 2089 l 5899 2033 l 5915 2089 l
 5930 2033 l gs col4 s gr 
%  polyline 
% Polyline
n 5954 2057 m 6002 2057 l 6002 2049 l 5998 2041 l 5994 2037 l 5986 2033 l
 5974 2033 l 5966 2037 l 5958 2045 l 5954 2057 l 5954 2065 l
 5958 2077 l 5966 2085 l 5974 2089 l 5986 2089 l 5994 2085 l

 6002 2077 l gs col4 s gr 
%  polyline 
% Polyline
n 6030 2005 m
 6030 2089 l gs col4 s gr 
%  polyline 
% Polyline
n 6061 2005 m
 6061 2089 l gs col4 s gr 
%  polyline 
% Polyline
n 6157 2025 m 6157 2021 l 6160 2013 l 6164 2010 l 6172 2005 l 6188 2005 l
 6196 2010 l 6200 2013 l 6204 2021 l 6204 2029 l 6200 2037 l
 6192 2049 l 6152 2089 l
 6208 2089 l gs col4 s gr 
%  polyline 
% Polyline
n 6256 2005 m 6244 2010 l 6236 2021 l 6232 2041 l 6232 2053 l 6236 2073 l
 6244 2085 l 6256 2089 l 6263 2089 l 6275 2085 l 6283 2073 l
 6287 2053 l 6287 2041 l 6283 2021 l 6275 2010 l 6263 2005 l

 6256 2005 l  cp gs col4 s gr 
%  polyline 
% Polyline
n 6335 2005 m 6323 2010 l 6315 2021 l 6311 2041 l 6311 2053 l 6315 2073 l
 6323 2085 l 6335 2089 l 6343 2089 l 6355 2085 l 6363 2073 l
 6367 2053 l 6367 2041 l 6363 2021 l 6355 2010 l 6343 2005 l

 6335 2005 l  cp gs col4 s gr 
%  polyline 
% Polyline
n 6458 2061 m
 6497 2061 l gs col4 s gr 
%  polyline 
% Polyline
n 6509 2089 m 6478 2005 l
 6446 2089 l gs col4 s gr 
%  polyline 
% Polyline
n 6478 1978 m 6486 1982 l 6486 1990 l 6478 1994 l 6470 1990 l 6470 1982 l

 6478 1978 l  cp gs col4 s gr 
%  polyline 
% Polyline
0 slc
 [60 30 15 30] 0 sd
n 5497 2060 m
 5799 2060 l gs col4 s gr  [] 0 sd
%  polyline 
% Polyline
1 slc
n 8507 2033 m 8523 2089 l 8539 2033 l 8555 2089 l
 8570 2033 l gs col4 s gr 
%  polyline 
% Polyline
n 8594 2057 m 8642 2057 l 8642 2049 l 8638 2041 l 8634 2037 l 8626 2033 l
 8614 2033 l 8606 2037 l 8598 2045 l 8594 2057 l 8594 2065 l
 8598 2077 l 8606 2085 l 8614 2089 l 8626 2089 l 8634 2085 l

 8642 2077 l gs col4 s gr 
%  polyline 
% Polyline
n 8670 2005 m
 8670 2089 l gs col4 s gr 
%  polyline 
% Polyline
n 8701 2005 m
 8701 2089 l gs col4 s gr 
%  polyline 
% Polyline
n 8797 2025 m 8797 2021 l 8800 2013 l 8804 2010 l 8812 2005 l 8828 2005 l
 8836 2010 l 8840 2013 l 8844 2021 l 8844 2029 l 8840 2037 l
 8832 2049 l 8792 2089 l
 8848 2089 l gs col4 s gr 
%  polyline 
% Polyline
n 8896 2005 m 8884 2010 l 8876 2021 l 8872 2041 l 8872 2053 l 8876 2073 l
 8884 2085 l 8896 2089 l 8903 2089 l 8915 2085 l 8923 2073 l
 8927 2053 l 8927 2041 l 8923 2021 l 8915 2010 l 8903 2005 l

 8896 2005 l  cp gs col4 s gr 
%  polyline 
% Polyline
n 8975 2005 m 8963 2010 l 8955 2021 l 8951 2041 l 8951 2053 l 8955 2073 l
 8963 2085 l 8975 2089 l 8983 2089 l 8995 2085 l 9003 2073 l
 9007 2053 l 9007 2041 l 9003 2021 l 8995 2010 l 8983 2005 l

 8975 2005 l  cp gs col4 s gr 
%  polyline 
% Polyline
n 9098 2061 m
 9137 2061 l gs col4 s gr 
%  polyline 
% Polyline
n 9149 2089 m 9118 2005 l
 9086 2089 l gs col4 s gr 
%  polyline 
% Polyline
n 9118 1978 m 9126 1982 l 9126 1990 l 9118 1994 l 9110 1990 l 9110 1982 l

 9118 1978 l  cp gs col4 s gr 
%  polyline 
% Polyline
0 slc
 [60 30 15 30] 0 sd
n 8137 2060 m
 8439 2060 l gs col4 s gr  [] 0 sd
%  polyline 
% Polyline
 [60 30 15 30] 0 sd
n 1767 2104 m 1828 1905 l 1888 1779 l 1948 1683 l 2009 1602 l 2069 1530 l
 2129 1465 l 2190 1404 l 2250 1350 l 2311 1298 l 2371 1248 l
 2431 1202 l 2492 1158 l 2552 1118 l 2612 1078 l 2673 1040 l
 2733 1003 l 2793 970 l 2854 937 l 2914 905 l 2974 875 l

 3035 846 l gs col4 s gr  [] 0 sd
%  polyline 
% Polyline
 [60 30 15 30] 0 sd
n 4586 2220 m 4647 2002 l 4707 1862 l 4767 1758 l 4828 1671 l 4888 1592 l
 4948 1527 l 5009 1466 l 5069 1414 l 5130 1364 l 5190 1317 l
 5250 1275 l 5311 1235 l 5371 1198 l 5431 1162 l 5492 1128 l
 5552 1096 l 5612 1066 l 5673 1038 l 5733 1010 l 5793 984 l

 5854 959 l gs col4 s gr  [] 0 sd
%  polyline 
% Polyline
 [60 30 15 30] 0 sd
n 7022 2127 m 7083 2013 l 7143 1986 l 7203 1969 l 7264 1974 l 7324 2046 l
 7384 1981 l 7445 1910 l 7505 1814 l 7566 1714 l 7626 1613 l
 7686 1519 l 7747 1431 l 7807 1353 l 7867 1277 l 7928 1208 l
 7988 1142 l 8048 1084 l 8109 1028 l 8169 976 l 8229 927 l

 8290 880 l gs col4 s gr  [] 0 sd
%  polyline 
% Polyline
1 slc
n 3229 1778 m 3245 1834 l 3261 1778 l 3277 1834 l
 3292 1778 l gs col1 s gr 
%  polyline 
% Polyline
n 3316 1802 m 3364 1802 l 3364 1794 l 3360 1786 l 3356 1782 l 3348 1778 l
 3336 1778 l 3328 1782 l 3320 1790 l 3316 1802 l 3316 1810 l
 3320 1822 l 3328 1830 l 3336 1834 l 3348 1834 l 3356 1830 l

 3364 1822 l gs col1 s gr 
%  polyline 
% Polyline
n 3392 1750 m
 3392 1834 l gs col1 s gr 
%  polyline 
% Polyline
n 3423 1750 m
 3423 1834 l gs col1 s gr 
%  polyline 
% Polyline
n 3526 1766 m 3534 1762 l 3546 1750 l
 3546 1834 l gs col1 s gr 
%  polyline 
% Polyline
n 3618 1750 m 3606 1754 l 3598 1766 l 3594 1786 l 3594 1798 l 3598 1818 l
 3606 1830 l 3618 1834 l 3625 1834 l 3637 1830 l 3645 1818 l
 3649 1798 l 3649 1786 l 3645 1766 l 3637 1754 l 3625 1750 l

 3618 1750 l  cp gs col1 s gr 
%  polyline 
% Polyline
n 3697 1750 m 3685 1754 l 3677 1766 l 3673 1786 l 3673 1798 l 3677 1818 l
 3685 1830 l 3697 1834 l 3705 1834 l 3717 1830 l 3725 1818 l
 3729 1798 l 3729 1786 l 3725 1766 l 3717 1754 l 3705 1750 l

 3697 1750 l  cp gs col1 s gr 
%  polyline 
% Polyline
n 3820 1806 m
 3859 1806 l gs col1 s gr 
%  polyline 
% Polyline
n 3871 1834 m 3840 1750 l
 3808 1834 l gs col1 s gr 
%  polyline 
% Polyline
n 3840 1723 m 3848 1727 l 3848 1735 l 3840 1739 l 3832 1735 l 3832 1727 l

 3840 1723 l  cp gs col1 s gr 
%  polyline 
% Polyline
0 slc
 [60] 0 sd
n 2859 1804 m
 3161 1804 l gs col1 s gr  [] 0 sd
%  polyline 
% Polyline
1 slc
n 5867 1778 m 5883 1834 l 5899 1778 l 5915 1834 l
 5930 1778 l gs col1 s gr 
%  polyline 
% Polyline
n 5954 1802 m 6002 1802 l 6002 1794 l 5998 1786 l 5994 1782 l 5986 1778 l
 5974 1778 l 5966 1782 l 5958 1790 l 5954 1802 l 5954 1810 l
 5958 1822 l 5966 1830 l 5974 1834 l 5986 1834 l 5994 1830 l

 6002 1822 l gs col1 s gr 
%  polyline 
% Polyline
n 6030 1750 m
 6030 1834 l gs col1 s gr 
%  polyline 
% Polyline
n 6061 1750 m
 6061 1834 l gs col1 s gr 
%  polyline 
% Polyline
n 6164 1766 m 6172 1762 l 6184 1750 l
 6184 1834 l gs col1 s gr 
%  polyline 
% Polyline
n 6256 1750 m 6244 1754 l 6236 1766 l 6232 1786 l 6232 1798 l 6236 1818 l
 6244 1830 l 6256 1834 l 6263 1834 l 6275 1830 l 6283 1818 l
 6287 1798 l 6287 1786 l 6283 1766 l 6275 1754 l 6263 1750 l

 6256 1750 l  cp gs col1 s gr 
%  polyline 
% Polyline
n 6335 1750 m 6323 1754 l 6315 1766 l 6311 1786 l 6311 1798 l 6315 1818 l
 6323 1830 l 6335 1834 l 6343 1834 l 6355 1830 l 6363 1818 l
 6367 1798 l 6367 1786 l 6363 1766 l 6355 1754 l 6343 1750 l

 6335 1750 l  cp gs col1 s gr 
%  polyline 
% Polyline
n 6458 1806 m
 6497 1806 l gs col1 s gr 
%  polyline 
% Polyline
n 6509 1834 m 6478 1750 l
 6446 1834 l gs col1 s gr 
%  polyline 
% Polyline
n 6478 1723 m 6486 1727 l 6486 1735 l 6478 1739 l 6470 1735 l 6470 1727 l

 6478 1723 l  cp gs col1 s gr 
%  polyline 
% Polyline
0 slc
 [60] 0 sd
n 5497 1804 m
 5799 1804 l gs col1 s gr  [] 0 sd
%  polyline 
% Polyline
1 slc
n 8507 1778 m 8523 1834 l 8539 1778 l 8555 1834 l
 8570 1778 l gs col1 s gr 
%  polyline 
% Polyline
n 8594 1802 m 8642 1802 l 8642 1794 l 8638 1786 l 8634 1782 l 8626 1778 l
 8614 1778 l 8606 1782 l 8598 1790 l 8594 1802 l 8594 1810 l
 8598 1822 l 8606 1830 l 8614 1834 l 8626 1834 l 8634 1830 l

 8642 1822 l gs col1 s gr 
%  polyline 
% Polyline
n 8670 1750 m
 8670 1834 l gs col1 s gr 
%  polyline 
% Polyline
n 8701 1750 m
 8701 1834 l gs col1 s gr 
%  polyline 
% Polyline
n 8804 1766 m 8812 1762 l 8824 1750 l
 8824 1834 l gs col1 s gr 
%  polyline 
% Polyline
n 8896 1750 m 8884 1754 l 8876 1766 l 8872 1786 l 8872 1798 l 8876 1818 l
 8884 1830 l 8896 1834 l 8903 1834 l 8915 1830 l 8923 1818 l
 8927 1798 l 8927 1786 l 8923 1766 l 8915 1754 l 8903 1750 l

 8896 1750 l  cp gs col1 s gr 
%  polyline 
% Polyline
n 8975 1750 m 8963 1754 l 8955 1766 l 8951 1786 l 8951 1798 l 8955 1818 l
 8963 1830 l 8975 1834 l 8983 1834 l 8995 1830 l 9003 1818 l
 9007 1798 l 9007 1786 l 9003 1766 l 8995 1754 l 8983 1750 l

 8975 1750 l  cp gs col1 s gr 
%  polyline 
% Polyline
n 9098 1806 m
 9137 1806 l gs col1 s gr 
%  polyline 
% Polyline
n 9149 1834 m 9118 1750 l
 9086 1834 l gs col1 s gr 
%  polyline 
% Polyline
n 9118 1723 m 9126 1727 l 9126 1735 l 9118 1739 l 9110 1735 l 9110 1727 l

 9118 1723 l  cp gs col1 s gr 
%  polyline 
% Polyline
0 slc
 [60] 0 sd
n 8137 1804 m
 8439 1804 l gs col1 s gr  [] 0 sd
%  polyline 
% Polyline
 [60] 0 sd
n 1767 1531 m 1828 1348 l 1888 1244 l 1948 1172 l 2009 1118 l 2069 1073 l
 2129 1036 l 2190 1004 l 2250 975 l 2311 946 l 2371 923 l
 2431 900 l 2492 878 l 2552 858 l 2612 836 l 2673 816 l
 2733 797 l 2793 776 l 2854 758 l 2914 739 l 2974 720 l
 3035 701 l 3095 683 l 3156 664 l 3216 646 l 3276 628 l
 3337 610 l 3397 592 l 3457 574 l 3518 557 l 3578 540 l
 3638 522 l 3699 506 l 3759 489 l
 3820 472 l gs col1 s gr  [] 0 sd
%  polyline 
% Polyline
 [60] 0 sd
n 4300 1660 m 4361 1465 l 4421 1347 l 4481 1265 l 4542 1199 l 4602 1143 l
 4662 1097 l 4723 1056 l 4783 1020 l 4844 985 l 4904 955 l
 4964 927 l 5025 900 l 5085 876 l 5145 852 l 5206 826 l
 5266 806 l 5326 785 l 5387 766 l 5447 748 l 5507 730 l
 5568 713 l 5628 697 l 5689 681 l 5749 665 l 5809 651 l
 5870 635 l 5930 622 l 5990 608 l 6051 595 l 6111 581 l
 6171 568 l 6232 556 l 6292 543 l
 6353 531 l gs col1 s gr  [] 0 sd
%  polyline 
% Polyline
 [60] 0 sd
n 6966 1729 m 7027 1566 l 7087 1487 l 7147 1439 l 7208 1413 l 7268 1400 l
 7328 1394 l 7389 1396 l 7449 1402 l 7510 1407 l 7570 1419 l
 7630 1436 l 7691 1454 l 7751 1469 l 7811 1475 l 7872 1534 l
 7932 1531 l 7992 1522 l 8053 1500 l 8113 1470 l 8173 1433 l
 8234 1390 l 8294 1344 l 8355 1295 l 8415 1247 l 8475 1200 l
 8536 1153 l 8596 1108 l 8656 1063 l 8717 1022 l 8777 982 l
 8837 942 l 8898 906 l 8958 871 l
 9019 839 l gs col1 s gr  [] 0 sd
%  polyline 
% Polyline
1 slc
n 3229 1523 m 3245 1579 l 3261 1523 l 3277 1579 l
 3292 1523 l gs col0 s gr 
%  polyline 
% Polyline
n 3316 1547 m 3364 1547 l 3364 1539 l 3360 1531 l 3356 1527 l 3348 1523 l
 3336 1523 l 3328 1527 l 3320 1535 l 3316 1547 l 3316 1555 l
 3320 1567 l 3328 1575 l 3336 1579 l 3348 1579 l 3356 1575 l

 3364 1567 l gs col0 s gr 
%  polyline 
% Polyline
n 3392 1495 m
 3392 1579 l gs col0 s gr 
%  polyline 
% Polyline
n 3423 1495 m
 3423 1579 l gs col0 s gr 
%  polyline 
% Polyline
n 3562 1495 m 3522 1495 l 3519 1531 l 3522 1527 l 3534 1523 l 3546 1523 l
 3558 1527 l 3566 1535 l 3570 1547 l 3570 1555 l 3566 1567 l
 3558 1575 l 3546 1579 l 3534 1579 l 3522 1575 l 3519 1571 l

 3514 1563 l gs col0 s gr 
%  polyline 
% Polyline
n 3618 1495 m 3606 1499 l 3598 1511 l 3594 1531 l 3594 1543 l 3598 1563 l
 3606 1575 l 3618 1579 l 3625 1579 l 3637 1575 l 3645 1563 l
 3649 1543 l 3649 1531 l 3645 1511 l 3637 1499 l 3625 1495 l

 3618 1495 l  cp gs col0 s gr 
%  polyline 
% Polyline
n 3741 1551 m
 3780 1551 l gs col0 s gr 
%  polyline 
% Polyline
n 3792 1579 m 3760 1495 l
 3729 1579 l gs col0 s gr 
%  polyline 
% Polyline
n 3760 1468 m 3768 1472 l 3768 1479 l 3760 1483 l 3753 1479 l 3753 1472 l

 3760 1468 l  cp gs col0 s gr 
%  polyline 
% Polyline
n 2859 1549 m
 3161 1549 l gs col0 s gr 
%  polyline 
% Polyline
n 5867 1523 m 5883 1579 l 5899 1523 l 5915 1579 l
 5930 1523 l gs col0 s gr 
%  polyline 
% Polyline
n 5954 1547 m 6002 1547 l 6002 1539 l 5998 1531 l 5994 1527 l 5986 1523 l
 5974 1523 l 5966 1527 l 5958 1535 l 5954 1547 l 5954 1555 l
 5958 1567 l 5966 1575 l 5974 1579 l 5986 1579 l 5994 1575 l

 6002 1567 l gs col0 s gr 
%  polyline 
% Polyline
n 6030 1495 m
 6030 1579 l gs col0 s gr 
%  polyline 
% Polyline
n 6061 1495 m
 6061 1579 l gs col0 s gr 
%  polyline 
% Polyline
n 6200 1495 m 6160 1495 l 6157 1531 l 6160 1527 l 6172 1523 l 6184 1523 l
 6196 1527 l 6204 1535 l 6208 1547 l 6208 1555 l 6204 1567 l
 6196 1575 l 6184 1579 l 6172 1579 l 6160 1575 l 6157 1571 l

 6152 1563 l gs col0 s gr 
%  polyline 
% Polyline
n 6256 1495 m 6244 1499 l 6236 1511 l 6232 1531 l 6232 1543 l 6236 1563 l
 6244 1575 l 6256 1579 l 6263 1579 l 6275 1575 l 6283 1563 l
 6287 1543 l 6287 1531 l 6283 1511 l 6275 1499 l 6263 1495 l

 6256 1495 l  cp gs col0 s gr 
%  polyline 
% Polyline
n 6379 1551 m
 6418 1551 l gs col0 s gr 
%  polyline 
% Polyline
n 6430 1579 m 6398 1495 l
 6367 1579 l gs col0 s gr 
%  polyline 
% Polyline
n 6398 1468 m 6406 1472 l 6406 1479 l 6398 1483 l 6391 1479 l 6391 1472 l

 6398 1468 l  cp gs col0 s gr 
%  polyline 
% Polyline
n 5497 1549 m
 5799 1549 l gs col0 s gr 
%  polyline 
% Polyline
n 8507 1523 m 8523 1579 l 8539 1523 l 8555 1579 l
 8570 1523 l gs col0 s gr 
%  polyline 
% Polyline
n 8594 1547 m 8642 1547 l 8642 1539 l 8638 1531 l 8634 1527 l 8626 1523 l
 8614 1523 l 8606 1527 l 8598 1535 l 8594 1547 l 8594 1555 l
 8598 1567 l 8606 1575 l 8614 1579 l 8626 1579 l 8634 1575 l

 8642 1567 l gs col0 s gr 
%  polyline 
% Polyline
n 8670 1495 m
 8670 1579 l gs col0 s gr 
%  polyline 
% Polyline
n 8701 1495 m
 8701 1579 l gs col0 s gr 
%  polyline 
% Polyline
n 8840 1495 m 8800 1495 l 8797 1531 l 8800 1527 l 8812 1523 l 8824 1523 l
 8836 1527 l 8844 1535 l 8848 1547 l 8848 1555 l 8844 1567 l
 8836 1575 l 8824 1579 l 8812 1579 l 8800 1575 l 8797 1571 l

 8792 1563 l gs col0 s gr 
%  polyline 
% Polyline
n 8896 1495 m 8884 1499 l 8876 1511 l 8872 1531 l 8872 1543 l 8876 1563 l
 8884 1575 l 8896 1579 l 8903 1579 l 8915 1575 l 8923 1563 l
 8927 1543 l 8927 1531 l 8923 1511 l 8915 1499 l 8903 1495 l

 8896 1495 l  cp gs col0 s gr 
%  polyline 
% Polyline
n 9019 1551 m
 9058 1551 l gs col0 s gr 
%  polyline 
% Polyline
n 9070 1579 m 9038 1495 l
 9007 1579 l gs col0 s gr 
%  polyline 
% Polyline
n 9038 1468 m 9046 1472 l 9046 1479 l 9038 1483 l 9031 1479 l 9031 1472 l

 9038 1468 l  cp gs col0 s gr 
%  polyline 
% Polyline
n 8137 1549 m
 8439 1549 l gs col0 s gr 
%  polyline 
% Polyline
n 4229 1414 m 4290 1222 l 4350 1109 l 4410 1031 l 4471 969 l 4531 919 l
 4591 877 l 4652 840 l 4712 807 l 4773 779 l 4833 752 l
 4893 728 l 4954 707 l 5014 687 l 5074 668 l 5135 651 l
 5195 635 l 5255 620 l 5316 605 l 5376 594 l 5436 581 l
 5497 569 l 5557 557 l 5618 547 l 5678 537 l 5738 526 l
 5799 517 l 5859 508 l 5919 500 l 5980 492 l 6040 484 l
 6100 478 l 6161 471 l 6221 466 l 6282 457 l 6342 443 l
 6402 435 l
 6463 427 l gs col0 s gr 
%  polyline 
% Polyline
n 1602 1205 m 1663 1019 l 1723 913 l 1783 842 l 1844 786 l 1904 742 l
 1964 706 l 2025 675 l 2085 648 l 2146 625 l 2206 605 l
 2266 587 l 2327 570 l 2387 556 l 2447 542 l 2508 530 l
 2568 519 l 2628 509 l 2689 499 l 2749 493 l 2809 484 l
 2870 476 l 2930 469 l 2991 462 l 3051 455 l 3111 447 l
 3172 441 l 3232 436 l 3292 430 l 3353 425 l 3413 418 l
 3473 413 l 3534 407 l 3594 402 l 3655 396 l 3715 389 l
 3775 384 l
 3836 377 l gs col0 s gr 
%  polyline 
% Polyline
n 6880 1212 m 6941 1032 l 7001 933 l 7061 871 l 7122 823 l 7182 787 l
 7242 757 l 7303 735 l 7363 719 l 7424 705 l 7484 694 l
 7544 687 l 7605 680 l 7665 677 l 7725 675 l 7786 674 l
 7846 676 l 7906 677 l 7967 681 l 8027 690 l 8087 696 l
 8148 702 l 8208 710 l 8269 718 l 8329 725 l 8389 727 l
 8450 737 l 8510 746 l 8570 756 l 8631 766 l 8691 767 l
 8751 764 l 8812 763 l 8872 760 l 8933 771 l 8993 826 l
 9053 840 l
 9114 844 l gs col0 s gr 
% here ends figure;
% 
% here starts figure with depth 50
%  polyline 
% Polyline
1 slj
1 slc
7.500 slw
n 1654 443 m 1665 437 l 1681 421 l
 1681 537 l gs col0 s gr 
%  polyline 
% Polyline
n 1842 398 m
 1743 582 l gs col0 s gr 
%  polyline 
% Polyline
n 1915 460 m
 1898 537 l gs col0 s gr 
%  polyline 
% Polyline
n 1865 476 m 1876 465 l 1892 460 l
 1953 460 l gs col0 s gr 
%  polyline 
% Polyline
n 2015 533 m
 1977 581 l gs col0 s gr 
%  polyline 
% Polyline
n 1977 533 m
 2015 533 l gs col0 s gr 
%  polyline 
% Polyline
n 1977 581 m
 2015 581 l gs col0 s gr 
%  polyline 
% Polyline
n 1654 443 m 1665 437 l 1681 421 l
 1681 537 l gs col0 s gr 
%  polyline 
% Polyline
n 1842 398 m
 1743 582 l gs col0 s gr 
%  polyline 
% Polyline
n 1915 460 m
 1898 537 l gs col0 s gr 
%  polyline 
% Polyline
n 1865 476 m 1876 465 l 1892 460 l
 1953 460 l gs col0 s gr 
%  polyline 
% Polyline
n 2015 533 m
 1977 581 l gs col0 s gr 
%  polyline 
% Polyline
n 1977 533 m
 2015 533 l gs col0 s gr 
%  polyline 
% Polyline
n 1977 581 m
 2015 581 l gs col0 s gr 
%  polyline 
% Polyline
n 1654 443 m 1665 437 l 1681 421 l
 1681 537 l gs col0 s gr 
%  polyline 
% Polyline
n 1842 398 m
 1743 582 l gs col0 s gr 
%  polyline 
% Polyline
n 1915 460 m
 1898 537 l gs col0 s gr 
%  polyline 
% Polyline
n 1865 476 m 1876 465 l 1892 460 l
 1953 460 l gs col0 s gr 
%  polyline 
% Polyline
n 2015 533 m
 1977 581 l gs col0 s gr 
%  polyline 
% Polyline
n 1977 533 m
 2015 533 l gs col0 s gr 
%  polyline 
% Polyline
n 1977 581 m
 2015 581 l gs col0 s gr 
%  polyline 
% Polyline
n 1654 443 m 1665 437 l 1681 421 l
 1681 537 l gs col0 s gr 
%  polyline 
% Polyline
n 1842 398 m
 1743 582 l gs col0 s gr 
%  polyline 
% Polyline
n 1915 460 m
 1898 537 l gs col0 s gr 
%  polyline 
% Polyline
n 1865 476 m 1876 465 l 1892 460 l
 1953 460 l gs col0 s gr 
%  polyline 
% Polyline
n 2015 533 m
 1977 581 l gs col0 s gr 
%  polyline 
% Polyline
n 1977 533 m
 2015 533 l gs col0 s gr 
%  polyline 
% Polyline
n 1977 581 m
 2015 581 l gs col0 s gr 
%  polyline 
% Polyline
n 1654 443 m 1665 437 l 1681 421 l
 1681 537 l gs col0 s gr 
%  polyline 
% Polyline
n 1842 398 m
 1743 582 l gs col0 s gr 
%  polyline 
% Polyline
n 1915 460 m
 1898 537 l gs col0 s gr 
%  polyline 
% Polyline
n 1865 476 m 1876 465 l 1892 460 l
 1953 460 l gs col0 s gr 
%  polyline 
% Polyline
n 2015 533 m
 1977 581 l gs col0 s gr 
%  polyline 
% Polyline
n 1977 533 m
 2015 533 l gs col0 s gr 
%  polyline 
% Polyline
n 1977 581 m
 2015 581 l gs col0 s gr 
%  polyline 
% Polyline
n 4292 443 m 4303 437 l 4319 421 l
 4319 537 l gs col0 s gr 
%  polyline 
% Polyline
n 4480 398 m
 4381 582 l gs col0 s gr 
%  polyline 
% Polyline
n 4553 460 m
 4536 537 l gs col0 s gr 
%  polyline 
% Polyline
n 4503 476 m 4514 465 l 4530 460 l
 4591 460 l gs col0 s gr 
%  polyline 
% Polyline
n 4649 520 m
 4649 581 l gs col0 s gr 
%  polyline 
% Polyline
n 4618 551 m
 4680 551 l gs col0 s gr 
%  polyline 
% Polyline
n 4292 443 m 4303 437 l 4319 421 l
 4319 537 l gs col0 s gr 
%  polyline 
% Polyline
n 4480 398 m
 4381 582 l gs col0 s gr 
%  polyline 
% Polyline
n 4553 460 m
 4536 537 l gs col0 s gr 
%  polyline 
% Polyline
n 4503 476 m 4514 465 l 4530 460 l
 4591 460 l gs col0 s gr 
%  polyline 
% Polyline
n 4649 520 m
 4649 581 l gs col0 s gr 
%  polyline 
% Polyline
n 4618 551 m
 4680 551 l gs col0 s gr 
%  polyline 
% Polyline
n 4292 443 m 4303 437 l 4319 421 l
 4319 537 l gs col0 s gr 
%  polyline 
% Polyline
n 4480 398 m
 4381 582 l gs col0 s gr 
%  polyline 
% Polyline
n 4553 460 m
 4536 537 l gs col0 s gr 
%  polyline 
% Polyline
n 4503 476 m 4514 465 l 4530 460 l
 4591 460 l gs col0 s gr 
%  polyline 
% Polyline
n 4649 520 m
 4649 581 l gs col0 s gr 
%  polyline 
% Polyline
n 4618 551 m
 4680 551 l gs col0 s gr 
%  polyline 
% Polyline
n 4292 443 m 4303 437 l 4319 421 l
 4319 537 l gs col0 s gr 
%  polyline 
% Polyline
n 4480 398 m
 4381 582 l gs col0 s gr 
%  polyline 
% Polyline
n 4553 460 m
 4536 537 l gs col0 s gr 
%  polyline 
% Polyline
n 4503 476 m 4514 465 l 4530 460 l
 4591 460 l gs col0 s gr 
%  polyline 
% Polyline
n 4649 520 m
 4649 581 l gs col0 s gr 
%  polyline 
% Polyline
n 4618 551 m
 4680 551 l gs col0 s gr 
%  polyline 
% Polyline
n 4292 443 m 4303 437 l 4319 421 l
 4319 537 l gs col0 s gr 
%  polyline 
% Polyline
n 4480 398 m
 4381 582 l gs col0 s gr 
%  polyline 
% Polyline
n 4553 460 m
 4536 537 l gs col0 s gr 
%  polyline 
% Polyline
n 4503 476 m 4514 465 l 4530 460 l
 4591 460 l gs col0 s gr 
%  polyline 
% Polyline
n 4649 520 m
 4649 581 l gs col0 s gr 
%  polyline 
% Polyline
n 4618 551 m
 4680 551 l gs col0 s gr 
%  polyline 
% Polyline
n 6932 443 m 6943 437 l 6959 421 l
 6959 537 l gs col0 s gr 
%  polyline 
% Polyline
n 7120 398 m
 7021 582 l gs col0 s gr 
%  polyline 
% Polyline
n 7193 460 m
 7176 537 l gs col0 s gr 
%  polyline 
% Polyline
n 7143 476 m 7154 465 l 7170 460 l
 7231 460 l gs col0 s gr 
%  polyline 
% Polyline
n 7258 551 m
 7320 551 l gs col0 s gr 
%  polyline 
% Polyline
n 6932 443 m 6943 437 l 6959 421 l
 6959 537 l gs col0 s gr 
%  polyline 
% Polyline
n 7120 398 m
 7021 582 l gs col0 s gr 
%  polyline 
% Polyline
n 7193 460 m
 7176 537 l gs col0 s gr 
%  polyline 
% Polyline
n 7143 476 m 7154 465 l 7170 460 l
 7231 460 l gs col0 s gr 
%  polyline 
% Polyline
n 7258 551 m
 7320 551 l gs col0 s gr 
%  polyline 
% Polyline
n 6932 443 m 6943 437 l 6959 421 l
 6959 537 l gs col0 s gr 
%  polyline 
% Polyline
n 7120 398 m
 7021 582 l gs col0 s gr 
%  polyline 
% Polyline
n 7193 460 m
 7176 537 l gs col0 s gr 
%  polyline 
% Polyline
n 7143 476 m 7154 465 l 7170 460 l
 7231 460 l gs col0 s gr 
%  polyline 
% Polyline
n 7258 551 m
 7320 551 l gs col0 s gr 
%  polyline 
% Polyline
n 6932 443 m 6943 437 l 6959 421 l
 6959 537 l gs col0 s gr 
%  polyline 
% Polyline
n 7120 398 m
 7021 582 l gs col0 s gr 
%  polyline 
% Polyline
n 7193 460 m
 7176 537 l gs col0 s gr 
%  polyline 
% Polyline
n 7143 476 m 7154 465 l 7170 460 l
 7231 460 l gs col0 s gr 
%  polyline 
% Polyline
n 7258 551 m
 7320 551 l gs col0 s gr 
%  polyline 
% Polyline
n 6932 443 m 6943 437 l 6959 421 l
 6959 537 l gs col0 s gr 
%  polyline 
% Polyline
n 7120 398 m
 7021 582 l gs col0 s gr 
%  polyline 
% Polyline
n 7193 460 m
 7176 537 l gs col0 s gr 
%  polyline 
% Polyline
n 7143 476 m 7154 465 l 7170 460 l
 7231 460 l gs col0 s gr 
%  polyline 
% Polyline
n 7258 551 m
 7320 551 l gs col0 s gr 
%  polyline 
% Polyline
n 1531 2944 m
 3945 2944 l gs col0 s gr 
%  polyline 
% Polyline
n 1531 2944 m
 1531 2891 l gs col0 s gr 
%  polyline 
% Polyline
n 1464 3040 m 1452 3044 l 1444 3056 l 1440 3076 l 1440 3088 l 1444 3107 l
 1452 3120 l 1464 3123 l 1472 3123 l 1483 3120 l 1491 3107 l
 1495 3088 l 1495 3076 l 1491 3056 l 1483 3044 l 1472 3040 l

 1464 3040 l  cp gs col0 s gr 
%  polyline 
% Polyline
n 1527 3116 m 1523 3120 l 1527 3123 l 1531 3120 l
 1527 3116 l  cp gs col0 s gr 
%  polyline 
% Polyline
n 1583 3040 m 1571 3044 l 1563 3056 l 1559 3076 l 1559 3088 l 1563 3107 l
 1571 3120 l 1583 3123 l 1590 3123 l 1602 3120 l 1610 3107 l
 1614 3088 l 1614 3076 l 1610 3056 l 1602 3044 l 1590 3040 l

 1583 3040 l  cp gs col0 s gr 
%  polyline 
% Polyline
n 2135 2944 m
 2135 2891 l gs col0 s gr 
%  polyline 
% Polyline
n 2067 3040 m 2055 3044 l 2047 3056 l 2043 3076 l 2043 3088 l 2047 3107 l
 2055 3120 l 2067 3123 l 2075 3123 l 2087 3120 l 2095 3107 l
 2099 3088 l 2099 3076 l 2095 3056 l 2087 3044 l 2075 3040 l

 2067 3040 l  cp gs col0 s gr 
%  polyline 
% Polyline
n 2131 3116 m 2127 3120 l 2131 3123 l 2135 3120 l
 2131 3116 l  cp gs col0 s gr 
%  polyline 
% Polyline
n 2210 3040 m 2170 3040 l 2166 3076 l 2170 3072 l 2182 3068 l 2194 3068 l
 2206 3072 l 2214 3080 l 2218 3092 l 2218 3100 l 2214 3112 l
 2206 3120 l 2194 3123 l 2182 3123 l 2170 3120 l 2166 3116 l

 2162 3108 l gs col0 s gr 
%  polyline 
% Polyline
n 2738 2944 m
 2738 2891 l gs col0 s gr 
%  polyline 
% Polyline
n 2659 3056 m 2667 3052 l 2679 3040 l
 2679 3124 l gs col0 s gr 
%  polyline 
% Polyline
n 2734 3116 m 2730 3120 l 2734 3123 l 2738 3120 l
 2734 3116 l  cp gs col0 s gr 
%  polyline 
% Polyline
n 2790 3040 m 2778 3044 l 2770 3056 l 2766 3076 l 2766 3088 l 2770 3107 l
 2778 3120 l 2790 3123 l 2798 3123 l 2809 3120 l 2817 3107 l
 2821 3088 l 2821 3076 l 2817 3056 l 2809 3044 l 2798 3040 l

 2790 3040 l  cp gs col0 s gr 
%  polyline 
% Polyline
n 3342 2944 m
 3342 2891 l gs col0 s gr 
%  polyline 
% Polyline
n 3263 3056 m 3270 3052 l 3282 3040 l
 3282 3124 l gs col0 s gr 
%  polyline 
% Polyline
n 3338 3116 m 3334 3120 l 3338 3123 l 3342 3120 l
 3338 3116 l  cp gs col0 s gr 
%  polyline 
% Polyline
n 3417 3040 m 3377 3040 l 3374 3076 l 3377 3072 l 3389 3068 l 3401 3068 l
 3413 3072 l 3421 3080 l 3425 3092 l 3425 3100 l 3421 3112 l
 3413 3120 l 3401 3123 l 3389 3123 l 3377 3120 l 3374 3116 l

 3369 3108 l gs col0 s gr 
%  polyline 
% Polyline
n 3945 2944 m
 3945 2891 l gs col0 s gr 
%  polyline 
% Polyline
n 3858 3060 m 3858 3056 l 3862 3048 l 3866 3044 l 3874 3040 l 3890 3040 l
 3898 3044 l 3902 3048 l 3906 3056 l 3906 3064 l 3902 3072 l
 3894 3084 l 3854 3123 l
 3910 3123 l gs col0 s gr 
%  polyline 
% Polyline
n 3941 3116 m 3937 3120 l 3941 3123 l 3945 3120 l
 3941 3116 l  cp gs col0 s gr 
%  polyline 
% Polyline
n 3997 3040 m 3985 3044 l 3977 3056 l 3973 3076 l 3973 3088 l 3977 3107 l
 3985 3120 l 3997 3123 l 4005 3123 l 4017 3120 l 4025 3107 l
 4029 3088 l 4029 3076 l 4025 3056 l 4017 3044 l 4005 3040 l

 3997 3040 l  cp gs col0 s gr 
%  polyline 
% Polyline
n 1652 2944 m
 1652 2917 l gs col0 s gr 
%  polyline 
% Polyline
n 1772 2944 m
 1772 2917 l gs col0 s gr 
%  polyline 
% Polyline
n 1893 2944 m
 1893 2917 l gs col0 s gr 
%  polyline 
% Polyline
n 2014 2944 m
 2014 2917 l gs col0 s gr 
%  polyline 
% Polyline
n 2255 2944 m
 2255 2917 l gs col0 s gr 
%  polyline 
% Polyline
n 2376 2944 m
 2376 2917 l gs col0 s gr 
%  polyline 
% Polyline
n 2497 2944 m
 2497 2917 l gs col0 s gr 
%  polyline 
% Polyline
n 2617 2944 m
 2617 2917 l gs col0 s gr 
%  polyline 
% Polyline
n 2859 2944 m
 2859 2917 l gs col0 s gr 
%  polyline 
% Polyline
n 2980 2944 m
 2980 2917 l gs col0 s gr 
%  polyline 
% Polyline
n 3100 2944 m
 3100 2917 l gs col0 s gr 
%  polyline 
% Polyline
n 3221 2944 m
 3221 2917 l gs col0 s gr 
%  polyline 
% Polyline
n 3463 2944 m
 3463 2917 l gs col0 s gr 
%  polyline 
% Polyline
n 3583 2944 m
 3583 2917 l gs col0 s gr 
%  polyline 
% Polyline
n 3704 2944 m
 3704 2917 l gs col0 s gr 
%  polyline 
% Polyline
n 3825 2944 m
 3825 2917 l gs col0 s gr 
%  polyline 
% Polyline
n 2297 3239 m 2302 3231 l 2309 3223 l 2321 3223 l 2325 3227 l 2325 3235 l
 2321 3251 l
 2313 3279 l gs col0 s gr 
%  polyline 
% Polyline
n 2317 3223 m 2321 3227 l 2321 3235 l 2317 3251 l
 2309 3279 l gs col0 s gr 
%  polyline 
% Polyline
n 2321 3251 m 2329 3235 l 2337 3227 l 2345 3223 l 2353 3223 l 2361 3227 l
 2365 3231 l 2365 3239 l 2357 3263 l 2357 3275 l
 2361 3279 l gs col0 s gr 
%  polyline 
% Polyline
n 2353 3223 m 2361 3231 l 2361 3239 l 2353 3263 l 2353 3275 l 2357 3279 l
 2369 3279 l 2377 3271 l
 2381 3263 l gs col0 s gr 
%  polyline 
% Polyline
n 2460 3180 m
 2460 3310 l gs col0 s gr 
%  polyline 
% Polyline
n 2464 3180 m
 2464 3310 l gs col0 s gr 
%  polyline 
% Polyline
n 2460 3180 m
 2488 3180 l gs col0 s gr 
%  polyline 
% Polyline
n 2460 3310 m
 2488 3310 l gs col0 s gr 
%  polyline 
% Polyline
n 2524 3211 m 2531 3207 l 2543 3196 l
 2543 3279 l gs col0 s gr 
%  polyline 
% Polyline
n 2615 3196 m 2603 3199 l 2595 3211 l 2591 3231 l 2591 3243 l 2595 3263 l
 2603 3275 l 2615 3279 l 2623 3279 l 2635 3275 l 2642 3263 l
 2647 3243 l 2647 3231 l 2642 3211 l 2635 3199 l 2623 3196 l

 2615 3196 l  cp gs col0 s gr 
%  polyline 
% Polyline
n 2675 3177 m 2680 3174 l 2687 3167 l
 2687 3219 l gs col0 s gr 
%  polyline 
% Polyline
n 2719 3179 m 2719 3177 l 2721 3172 l 2724 3169 l 2729 3167 l 2738 3167 l
 2743 3169 l 2746 3172 l 2748 3177 l 2748 3182 l 2746 3187 l
 2741 3194 l 2716 3219 l
 2751 3219 l gs col0 s gr 
%  polyline 
% Polyline
n 2880 3235 m 2872 3227 l 2864 3223 l 2852 3223 l 2844 3227 l 2836 3235 l
 2832 3247 l 2832 3255 l 2836 3267 l 2844 3275 l 2852 3279 l
 2864 3279 l 2872 3275 l
 2880 3267 l gs col0 s gr 
%  polyline 
% Polyline
n 2907 3223 m
 2907 3279 l gs col0 s gr 
%  polyline 
% Polyline
n 2907 3239 m 2919 3227 l 2927 3223 l 2939 3223 l 2947 3227 l 2951 3239 l

 2951 3279 l gs col0 s gr 
%  polyline 
% Polyline
n 2951 3239 m 2963 3227 l 2971 3223 l 2983 3223 l 2991 3227 l 2994 3239 l

 2994 3279 l gs col0 s gr 
%  polyline 
% Polyline
n 3022 3196 m
 3066 3196 l gs col0 s gr 
%  polyline 
% Polyline
n 3086 3179 m 3086 3177 l 3088 3172 l 3090 3169 l 3095 3167 l 3105 3167 l
 3110 3169 l 3113 3172 l 3115 3177 l 3115 3182 l 3113 3187 l
 3108 3194 l 3083 3219 l
 3117 3219 l gs col0 s gr 
%  polyline 
% Polyline
n 3159 3180 m
 3159 3310 l gs col0 s gr 
%  polyline 
% Polyline
n 3163 3180 m
 3163 3310 l gs col0 s gr 
%  polyline 
% Polyline
n 3135 3180 m
 3163 3180 l gs col0 s gr 
%  polyline 
% Polyline
n 3135 3310 m
 3163 3310 l gs col0 s gr 
%  polyline 
% Polyline
n 1531 267 m
 3945 267 l gs col0 s gr 
%  polyline 
% Polyline
n 1531 267 m
 1531 321 l gs col0 s gr 
%  polyline 
% Polyline
n 2135 267 m
 2135 321 l gs col0 s gr 
%  polyline 
% Polyline
n 2738 267 m
 2738 321 l gs col0 s gr 
%  polyline 
% Polyline
n 3342 267 m
 3342 321 l gs col0 s gr 
%  polyline 
% Polyline
n 3945 267 m
 3945 321 l gs col0 s gr 
%  polyline 
% Polyline
n 1652 267 m
 1652 294 l gs col0 s gr 
%  polyline 
% Polyline
n 1772 267 m
 1772 294 l gs col0 s gr 
%  polyline 
% Polyline
n 1893 267 m
 1893 294 l gs col0 s gr 
%  polyline 
% Polyline
n 2014 267 m
 2014 294 l gs col0 s gr 
%  polyline 
% Polyline
n 2255 267 m
 2255 294 l gs col0 s gr 
%  polyline 
% Polyline
n 2376 267 m
 2376 294 l gs col0 s gr 
%  polyline 
% Polyline
n 2497 267 m
 2497 294 l gs col0 s gr 
%  polyline 
% Polyline
n 2617 267 m
 2617 294 l gs col0 s gr 
%  polyline 
% Polyline
n 2859 267 m
 2859 294 l gs col0 s gr 
%  polyline 
% Polyline
n 2980 267 m
 2980 294 l gs col0 s gr 
%  polyline 
% Polyline
n 3100 267 m
 3100 294 l gs col0 s gr 
%  polyline 
% Polyline
n 3221 267 m
 3221 294 l gs col0 s gr 
%  polyline 
% Polyline
n 3463 267 m
 3463 294 l gs col0 s gr 
%  polyline 
% Polyline
n 3583 267 m
 3583 294 l gs col0 s gr 
%  polyline 
% Polyline
n 3704 267 m
 3704 294 l gs col0 s gr 
%  polyline 
% Polyline
n 3825 267 m
 3825 294 l gs col0 s gr 
%  polyline 
% Polyline
n 1531 2944 m
 1531 267 l gs col0 s gr 
%  polyline 
% Polyline
n 1531 2496 m
 1579 2496 l gs col0 s gr 
%  polyline 
% Polyline
n 1241 2476 m 1249 2473 l 1261 2461 l
 1261 2544 l gs col0 s gr 
%  polyline 
% Polyline
n 1333 2461 m 1321 2465 l 1313 2476 l 1309 2496 l 1309 2508 l 1313 2528 l
 1321 2540 l 1333 2544 l 1341 2544 l 1353 2540 l 1361 2528 l
 1364 2508 l 1364 2496 l 1361 2476 l 1353 2465 l 1341 2461 l

 1333 2461 l  cp gs col0 s gr 
%  polyline 
% Polyline
n 1388 2462 m
 1432 2462 l gs col0 s gr 
%  polyline 
% Polyline
n 1474 2432 m 1449 2467 l
 1486 2467 l gs col0 s gr 
%  polyline 
% Polyline
n 1474 2432 m
 1474 2484 l gs col0 s gr 
%  polyline 
% Polyline
n 1531 1855 m
 1579 1855 l gs col0 s gr 
%  polyline 
% Polyline
n 1241 1835 m 1249 1832 l 1261 1820 l
 1261 1903 l gs col0 s gr 
%  polyline 
% Polyline
n 1333 1820 m 1321 1824 l 1313 1835 l 1309 1855 l 1309 1867 l 1313 1887 l
 1321 1899 l 1333 1903 l 1341 1903 l 1353 1899 l 1361 1887 l
 1364 1867 l 1364 1855 l 1361 1835 l 1353 1824 l 1341 1820 l

 1333 1820 l  cp gs col0 s gr 
%  polyline 
% Polyline
n 1388 1820 m
 1432 1820 l gs col0 s gr 
%  polyline 
% Polyline
n 1454 1791 m 1481 1791 l 1466 1811 l 1474 1811 l 1479 1813 l 1481 1816 l
 1483 1823 l 1483 1828 l 1481 1835 l 1476 1840 l 1469 1843 l
 1461 1843 l 1454 1840 l 1452 1838 l
 1449 1833 l gs col0 s gr 
%  polyline 
% Polyline
n 1531 1214 m
 1579 1214 l gs col0 s gr 
%  polyline 
% Polyline
n 1241 1195 m 1249 1190 l 1261 1179 l
 1261 1262 l gs col0 s gr 
%  polyline 
% Polyline
n 1333 1179 m 1321 1183 l 1313 1195 l 1309 1214 l 1309 1226 l 1313 1246 l
 1321 1258 l 1333 1262 l 1341 1262 l 1353 1258 l 1361 1246 l
 1364 1226 l 1364 1214 l 1361 1195 l 1353 1183 l 1341 1179 l

 1333 1179 l  cp gs col0 s gr 
%  polyline 
% Polyline
n 1388 1180 m
 1432 1180 l gs col0 s gr 
%  polyline 
% Polyline
n 1452 1162 m 1452 1160 l 1454 1155 l 1457 1153 l 1461 1150 l 1471 1150 l
 1476 1153 l 1479 1155 l 1481 1160 l 1481 1165 l 1479 1170 l
 1474 1177 l 1449 1202 l
 1483 1202 l gs col0 s gr 
%  polyline 
% Polyline
n 1531 573 m
 1579 573 l gs col0 s gr 
%  polyline 
% Polyline
n 1241 553 m 1249 549 l 1261 538 l
 1261 621 l gs col0 s gr 
%  polyline 
% Polyline
n 1333 538 m 1321 541 l 1313 553 l 1309 573 l 1309 585 l 1313 605 l
 1321 617 l 1333 621 l 1341 621 l 1353 617 l 1361 605 l
 1364 585 l 1364 573 l 1361 553 l 1353 541 l 1341 538 l

 1333 538 l  cp gs col0 s gr 
%  polyline 
% Polyline
n 1388 539 m
 1432 539 l gs col0 s gr 
%  polyline 
% Polyline
n 1457 519 m 1461 516 l 1469 509 l
 1469 561 l gs col0 s gr 
%  polyline 
% Polyline
n 1531 2944 m
 1555 2944 l gs col0 s gr 
%  polyline 
% Polyline
n 1531 2831 m
 1555 2831 l gs col0 s gr 
%  polyline 
% Polyline
n 1531 2751 m
 1555 2751 l gs col0 s gr 
%  polyline 
% Polyline
n 1531 2689 m
 1555 2689 l gs col0 s gr 
%  polyline 
% Polyline
n 1531 2638 m
 1555 2638 l gs col0 s gr 
%  polyline 
% Polyline
n 1531 2596 m
 1555 2596 l gs col0 s gr 
%  polyline 
% Polyline
n 1531 2558 m
 1555 2558 l gs col0 s gr 
%  polyline 
% Polyline
n 1531 2525 m
 1555 2525 l gs col0 s gr 
%  polyline 
% Polyline
n 1531 2303 m
 1555 2303 l gs col0 s gr 
%  polyline 
% Polyline
n 1531 2190 m
 1555 2190 l gs col0 s gr 
%  polyline 
% Polyline
n 1531 2110 m
 1555 2110 l gs col0 s gr 
%  polyline 
% Polyline
n 1531 2048 m
 1555 2048 l gs col0 s gr 
%  polyline 
% Polyline
n 1531 1997 m
 1555 1997 l gs col0 s gr 
%  polyline 
% Polyline
n 1531 1955 m
 1555 1955 l gs col0 s gr 
%  polyline 
% Polyline
n 1531 1917 m
 1555 1917 l gs col0 s gr 
%  polyline 
% Polyline
n 1531 1884 m
 1555 1884 l gs col0 s gr 
%  polyline 
% Polyline
n 1531 1662 m
 1555 1662 l gs col0 s gr 
%  polyline 
% Polyline
n 1531 1549 m
 1555 1549 l gs col0 s gr 
%  polyline 
% Polyline
n 1531 1469 m
 1555 1469 l gs col0 s gr 
%  polyline 
% Polyline
n 1531 1407 m
 1555 1407 l gs col0 s gr 
%  polyline 
% Polyline
n 1531 1356 m
 1555 1356 l gs col0 s gr 
%  polyline 
% Polyline
n 1531 1313 m
 1555 1313 l gs col0 s gr 
%  polyline 
% Polyline
n 1531 1276 m
 1555 1276 l gs col0 s gr 
%  polyline 
% Polyline
n 1531 1244 m
 1555 1244 l gs col0 s gr 
%  polyline 
% Polyline
n 1531 1021 m
 1555 1021 l gs col0 s gr 
%  polyline 
% Polyline
n 1531 908 m
 1555 908 l gs col0 s gr 
%  polyline 
% Polyline
n 1531 828 m
 1555 828 l gs col0 s gr 
%  polyline 
% Polyline
n 1531 766 m
 1555 766 l gs col0 s gr 
%  polyline 
% Polyline
n 1531 715 m
 1555 715 l gs col0 s gr 
%  polyline 
% Polyline
n 1531 672 m
 1555 672 l gs col0 s gr 
%  polyline 
% Polyline
n 1531 635 m
 1555 635 l gs col0 s gr 
%  polyline 
% Polyline
n 1531 602 m
 1555 602 l gs col0 s gr 
%  polyline 
% Polyline
n 1531 380 m
 1555 380 l gs col0 s gr 
%  polyline 
% Polyline
n 1531 267 m
 1555 267 l gs col0 s gr 
%  polyline 
% Polyline
n 1041 1924 m 1037 1916 l 1025 1904 l
 1109 1904 l gs col0 s gr 
%  polyline 
% Polyline
n 1009 1789 m
 1140 1860 l gs col0 s gr 
%  polyline 
% Polyline
n 1053 1738 m
 1109 1749 l gs col0 s gr 
%  polyline 
% Polyline
n 1065 1773 m 1057 1765 l 1053 1753 l
 1053 1710 l gs col0 s gr 
%  polyline 
% Polyline
n 1009 1622 m
 1140 1622 l gs col0 s gr 
%  polyline 
% Polyline
n 1009 1619 m
 1140 1619 l gs col0 s gr 
%  polyline 
% Polyline
n 1009 1622 m
 1009 1595 l gs col0 s gr 
%  polyline 
% Polyline
n 1140 1622 m
 1140 1595 l gs col0 s gr 
%  polyline 
% Polyline
n 1053 1567 m
 1140 1567 l gs col0 s gr 
%  polyline 
% Polyline
n 1065 1567 m 1057 1559 l 1053 1551 l 1053 1539 l 1057 1531 l 1065 1523 l
 1077 1519 l 1085 1519 l 1097 1523 l 1105 1531 l 1109 1539 l
 1109 1551 l 1105 1559 l
 1097 1567 l gs col0 s gr 
%  polyline 
% Polyline
n 1065 1452 m 1057 1456 l 1053 1468 l 1053 1480 l 1057 1492 l 1065 1496 l
 1073 1492 l 1077 1484 l 1081 1464 l 1085 1456 l 1093 1452 l
 1097 1452 l 1105 1456 l 1109 1468 l 1109 1480 l 1105 1492 l

 1097 1496 l gs col0 s gr 
%  polyline 
% Polyline
n 1026 1429 m
 1026 1385 l gs col0 s gr 
%  polyline 
% Polyline
n 1007 1360 m 1004 1355 l 997 1348 l
 1049 1348 l gs col0 s gr 
%  polyline 
% Polyline
n 1009 1292 m
 1140 1292 l gs col0 s gr 
%  polyline 
% Polyline
n 1009 1288 m
 1140 1288 l gs col0 s gr 
%  polyline 
% Polyline
n 1009 1315 m
 1009 1288 l gs col0 s gr 
%  polyline 
% Polyline
n 1140 1315 m
 1140 1288 l gs col0 s gr 
%  polyline 
% Polyline
n 3945 2944 m
 3945 267 l gs col0 s gr 
%  polyline 
% Polyline
n 3945 2496 m
 3897 2496 l gs col0 s gr 
%  polyline 
% Polyline
n 3945 1855 m
 3897 1855 l gs col0 s gr 
%  polyline 
% Polyline
n 3945 1214 m
 3897 1214 l gs col0 s gr 
%  polyline 
% Polyline
n 3945 573 m
 3897 573 l gs col0 s gr 
%  polyline 
% Polyline
n 3945 2944 m
 3921 2944 l gs col0 s gr 
%  polyline 
% Polyline
n 3945 2831 m
 3921 2831 l gs col0 s gr 
%  polyline 
% Polyline
n 3945 2751 m
 3921 2751 l gs col0 s gr 
%  polyline 
% Polyline
n 3945 2689 m
 3921 2689 l gs col0 s gr 
%  polyline 
% Polyline
n 3945 2638 m
 3921 2638 l gs col0 s gr 
%  polyline 
% Polyline
n 3945 2596 m
 3921 2596 l gs col0 s gr 
%  polyline 
% Polyline
n 3945 2558 m
 3921 2558 l gs col0 s gr 
%  polyline 
% Polyline
n 3945 2525 m
 3921 2525 l gs col0 s gr 
%  polyline 
% Polyline
n 3945 2303 m
 3921 2303 l gs col0 s gr 
%  polyline 
% Polyline
n 3945 2190 m
 3921 2190 l gs col0 s gr 
%  polyline 
% Polyline
n 3945 2110 m
 3921 2110 l gs col0 s gr 
%  polyline 
% Polyline
n 3945 2048 m
 3921 2048 l gs col0 s gr 
%  polyline 
% Polyline
n 3945 1997 m
 3921 1997 l gs col0 s gr 
%  polyline 
% Polyline
n 3945 1955 m
 3921 1955 l gs col0 s gr 
%  polyline 
% Polyline
n 3945 1917 m
 3921 1917 l gs col0 s gr 
%  polyline 
% Polyline
n 3945 1884 m
 3921 1884 l gs col0 s gr 
%  polyline 
% Polyline
n 3945 1662 m
 3921 1662 l gs col0 s gr 
%  polyline 
% Polyline
n 3945 1549 m
 3921 1549 l gs col0 s gr 
%  polyline 
% Polyline
n 3945 1469 m
 3921 1469 l gs col0 s gr 
%  polyline 
% Polyline
n 3945 1407 m
 3921 1407 l gs col0 s gr 
%  polyline 
% Polyline
n 3945 1356 m
 3921 1356 l gs col0 s gr 
%  polyline 
% Polyline
n 3945 1313 m
 3921 1313 l gs col0 s gr 
%  polyline 
% Polyline
n 3945 1276 m
 3921 1276 l gs col0 s gr 
%  polyline 
% Polyline
n 3945 1244 m
 3921 1244 l gs col0 s gr 
%  polyline 
% Polyline
n 3945 1021 m
 3921 1021 l gs col0 s gr 
%  polyline 
% Polyline
n 3945 908 m
 3921 908 l gs col0 s gr 
%  polyline 
% Polyline
n 3945 828 m
 3921 828 l gs col0 s gr 
%  polyline 
% Polyline
n 3945 766 m
 3921 766 l gs col0 s gr 
%  polyline 
% Polyline
n 3945 715 m
 3921 715 l gs col0 s gr 
%  polyline 
% Polyline
n 3945 672 m
 3921 672 l gs col0 s gr 
%  polyline 
% Polyline
n 3945 635 m
 3921 635 l gs col0 s gr 
%  polyline 
% Polyline
n 3945 602 m
 3921 602 l gs col0 s gr 
%  polyline 
% Polyline
n 3945 380 m
 3921 380 l gs col0 s gr 
%  polyline 
% Polyline
n 3945 267 m
 3921 267 l gs col0 s gr 
%  polyline 
% Polyline
n 4169 2944 m
 6583 2944 l gs col0 s gr 
%  polyline 
% Polyline
n 4169 2944 m
 4169 2891 l gs col0 s gr 
%  polyline 
% Polyline
n 4102 3040 m 4090 3044 l 4082 3056 l 4078 3076 l 4078 3088 l 4082 3107 l
 4090 3120 l 4102 3123 l 4110 3123 l 4121 3120 l 4129 3107 l
 4133 3088 l 4133 3076 l 4129 3056 l 4121 3044 l 4110 3040 l

 4102 3040 l  cp gs col0 s gr 
%  polyline 
% Polyline
n 4165 3116 m 4161 3120 l 4165 3123 l 4169 3120 l
 4165 3116 l  cp gs col0 s gr 
%  polyline 
% Polyline
n 4221 3040 m 4209 3044 l 4201 3056 l 4197 3076 l 4197 3088 l 4201 3107 l
 4209 3120 l 4221 3123 l 4228 3123 l 4240 3120 l 4248 3107 l
 4252 3088 l 4252 3076 l 4248 3056 l 4240 3044 l 4228 3040 l

 4221 3040 l  cp gs col0 s gr 
%  polyline 
% Polyline
n 4773 2944 m
 4773 2891 l gs col0 s gr 
%  polyline 
% Polyline
n 4705 3040 m 4693 3044 l 4685 3056 l 4681 3076 l 4681 3088 l 4685 3107 l
 4693 3120 l 4705 3123 l 4713 3123 l 4725 3120 l 4733 3107 l
 4737 3088 l 4737 3076 l 4733 3056 l 4725 3044 l 4713 3040 l

 4705 3040 l  cp gs col0 s gr 
%  polyline 
% Polyline
n 4769 3116 m 4765 3120 l 4769 3123 l 4773 3120 l
 4769 3116 l  cp gs col0 s gr 
%  polyline 
% Polyline
n 4848 3040 m 4808 3040 l 4804 3076 l 4808 3072 l 4820 3068 l 4832 3068 l
 4844 3072 l 4852 3080 l 4856 3092 l 4856 3100 l 4852 3112 l
 4844 3120 l 4832 3123 l 4820 3123 l 4808 3120 l 4804 3116 l

 4800 3108 l gs col0 s gr 
%  polyline 
% Polyline
n 5376 2944 m
 5376 2891 l gs col0 s gr 
%  polyline 
% Polyline
n 5297 3056 m 5305 3052 l 5317 3040 l
 5317 3124 l gs col0 s gr 
%  polyline 
% Polyline
n 5372 3116 m 5368 3120 l 5372 3123 l 5376 3120 l
 5372 3116 l  cp gs col0 s gr 
%  polyline 
% Polyline
n 5428 3040 m 5416 3044 l 5408 3056 l 5404 3076 l 5404 3088 l 5408 3107 l
 5416 3120 l 5428 3123 l 5436 3123 l 5447 3120 l 5455 3107 l
 5459 3088 l 5459 3076 l 5455 3056 l 5447 3044 l 5436 3040 l

 5428 3040 l  cp gs col0 s gr 
%  polyline 
% Polyline
n 5980 2944 m
 5980 2891 l gs col0 s gr 
%  polyline 
% Polyline
n 5901 3056 m 5908 3052 l 5920 3040 l
 5920 3124 l gs col0 s gr 
%  polyline 
% Polyline
n 5976 3116 m 5972 3120 l 5976 3123 l 5980 3120 l
 5976 3116 l  cp gs col0 s gr 
%  polyline 
% Polyline
n 6055 3040 m 6015 3040 l 6012 3076 l 6015 3072 l 6027 3068 l 6039 3068 l
 6051 3072 l 6059 3080 l 6063 3092 l 6063 3100 l 6059 3112 l
 6051 3120 l 6039 3123 l 6027 3123 l 6015 3120 l 6012 3116 l

 6007 3108 l gs col0 s gr 
%  polyline 
% Polyline
n 6583 2944 m
 6583 2891 l gs col0 s gr 
%  polyline 
% Polyline
n 6496 3060 m 6496 3056 l 6500 3048 l 6504 3044 l 6512 3040 l 6528 3040 l
 6536 3044 l 6540 3048 l 6544 3056 l 6544 3064 l 6540 3072 l
 6532 3084 l 6492 3123 l
 6548 3123 l gs col0 s gr 
%  polyline 
% Polyline
n 6579 3116 m 6575 3120 l 6579 3123 l 6583 3120 l
 6579 3116 l  cp gs col0 s gr 
%  polyline 
% Polyline
n 6635 3040 m 6623 3044 l 6615 3056 l 6611 3076 l 6611 3088 l 6615 3107 l
 6623 3120 l 6635 3123 l 6643 3123 l 6655 3120 l 6663 3107 l
 6667 3088 l 6667 3076 l 6663 3056 l 6655 3044 l 6643 3040 l

 6635 3040 l  cp gs col0 s gr 
%  polyline 
% Polyline
n 4290 2944 m
 4290 2917 l gs col0 s gr 
%  polyline 
% Polyline
n 4410 2944 m
 4410 2917 l gs col0 s gr 
%  polyline 
% Polyline
n 4531 2944 m
 4531 2917 l gs col0 s gr 
%  polyline 
% Polyline
n 4652 2944 m
 4652 2917 l gs col0 s gr 
%  polyline 
% Polyline
n 4893 2944 m
 4893 2917 l gs col0 s gr 
%  polyline 
% Polyline
n 5014 2944 m
 5014 2917 l gs col0 s gr 
%  polyline 
% Polyline
n 5135 2944 m
 5135 2917 l gs col0 s gr 
%  polyline 
% Polyline
n 5255 2944 m
 5255 2917 l gs col0 s gr 
%  polyline 
% Polyline
n 5497 2944 m
 5497 2917 l gs col0 s gr 
%  polyline 
% Polyline
n 5618 2944 m
 5618 2917 l gs col0 s gr 
%  polyline 
% Polyline
n 5738 2944 m
 5738 2917 l gs col0 s gr 
%  polyline 
% Polyline
n 5859 2944 m
 5859 2917 l gs col0 s gr 
%  polyline 
% Polyline
n 6101 2944 m
 6101 2917 l gs col0 s gr 
%  polyline 
% Polyline
n 6221 2944 m
 6221 2917 l gs col0 s gr 
%  polyline 
% Polyline
n 6342 2944 m
 6342 2917 l gs col0 s gr 
%  polyline 
% Polyline
n 6463 2944 m
 6463 2917 l gs col0 s gr 
%  polyline 
% Polyline
n 4935 3239 m 4940 3231 l 4947 3223 l 4959 3223 l 4963 3227 l 4963 3235 l
 4959 3251 l
 4951 3279 l gs col0 s gr 
%  polyline 
% Polyline
n 4955 3223 m 4959 3227 l 4959 3235 l 4955 3251 l
 4947 3279 l gs col0 s gr 
%  polyline 
% Polyline
n 4959 3251 m 4967 3235 l 4975 3227 l 4983 3223 l 4991 3223 l 4999 3227 l
 5003 3231 l 5003 3239 l 4995 3263 l 4995 3275 l
 4999 3279 l gs col0 s gr 
%  polyline 
% Polyline
n 4991 3223 m 4999 3231 l 4999 3239 l 4991 3263 l 4991 3275 l 4995 3279 l
 5007 3279 l 5015 3271 l
 5019 3263 l gs col0 s gr 
%  polyline 
% Polyline
n 5098 3180 m
 5098 3310 l gs col0 s gr 
%  polyline 
% Polyline
n 5102 3180 m
 5102 3310 l gs col0 s gr 
%  polyline 
% Polyline
n 5098 3180 m
 5126 3180 l gs col0 s gr 
%  polyline 
% Polyline
n 5098 3310 m
 5126 3310 l gs col0 s gr 
%  polyline 
% Polyline
n 5162 3211 m 5169 3207 l 5181 3196 l
 5181 3279 l gs col0 s gr 
%  polyline 
% Polyline
n 5253 3196 m 5241 3199 l 5233 3211 l 5229 3231 l 5229 3243 l 5233 3263 l
 5241 3275 l 5253 3279 l 5261 3279 l 5273 3275 l 5280 3263 l
 5285 3243 l 5285 3231 l 5280 3211 l 5273 3199 l 5261 3196 l

 5253 3196 l  cp gs col0 s gr 
%  polyline 
% Polyline
n 5313 3177 m 5318 3174 l 5325 3167 l
 5325 3219 l gs col0 s gr 
%  polyline 
% Polyline
n 5357 3179 m 5357 3177 l 5359 3172 l 5362 3169 l 5367 3167 l 5376 3167 l
 5381 3169 l 5384 3172 l 5386 3177 l 5386 3182 l 5384 3187 l
 5379 3194 l 5354 3219 l
 5389 3219 l gs col0 s gr 
%  polyline 
% Polyline
n 5518 3235 m 5510 3227 l 5502 3223 l 5490 3223 l 5482 3227 l 5474 3235 l
 5470 3247 l 5470 3255 l 5474 3267 l 5482 3275 l 5490 3279 l
 5502 3279 l 5510 3275 l
 5518 3267 l gs col0 s gr 
%  polyline 
% Polyline
n 5545 3223 m
 5545 3279 l gs col0 s gr 
%  polyline 
% Polyline
n 5545 3239 m 5557 3227 l 5565 3223 l 5577 3223 l 5585 3227 l 5589 3239 l

 5589 3279 l gs col0 s gr 
%  polyline 
% Polyline
n 5589 3239 m 5601 3227 l 5609 3223 l 5621 3223 l 5629 3227 l 5632 3239 l

 5632 3279 l gs col0 s gr 
%  polyline 
% Polyline
n 5660 3196 m
 5704 3196 l gs col0 s gr 
%  polyline 
% Polyline
n 5724 3179 m 5724 3177 l 5726 3172 l 5728 3169 l 5733 3167 l 5743 3167 l
 5748 3169 l 5751 3172 l 5753 3177 l 5753 3182 l 5751 3187 l
 5746 3194 l 5721 3219 l
 5755 3219 l gs col0 s gr 
%  polyline 
% Polyline
n 5797 3180 m
 5797 3310 l gs col0 s gr 
%  polyline 
% Polyline
n 5801 3180 m
 5801 3310 l gs col0 s gr 
%  polyline 
% Polyline
n 5773 3180 m
 5801 3180 l gs col0 s gr 
%  polyline 
% Polyline
n 5773 3310 m
 5801 3310 l gs col0 s gr 
%  polyline 
% Polyline
n 4169 267 m
 6583 267 l gs col0 s gr 
%  polyline 
% Polyline
n 4169 267 m
 4169 321 l gs col0 s gr 
%  polyline 
% Polyline
n 4773 267 m
 4773 321 l gs col0 s gr 
%  polyline 
% Polyline
n 5376 267 m
 5376 321 l gs col0 s gr 
%  polyline 
% Polyline
n 5980 267 m
 5980 321 l gs col0 s gr 
%  polyline 
% Polyline
n 6583 267 m
 6583 321 l gs col0 s gr 
%  polyline 
% Polyline
n 4290 267 m
 4290 294 l gs col0 s gr 
%  polyline 
% Polyline
n 4410 267 m
 4410 294 l gs col0 s gr 
%  polyline 
% Polyline
n 4531 267 m
 4531 294 l gs col0 s gr 
%  polyline 
% Polyline
n 4652 267 m
 4652 294 l gs col0 s gr 
%  polyline 
% Polyline
n 4893 267 m
 4893 294 l gs col0 s gr 
%  polyline 
% Polyline
n 5014 267 m
 5014 294 l gs col0 s gr 
%  polyline 
% Polyline
n 5135 267 m
 5135 294 l gs col0 s gr 
%  polyline 
% Polyline
n 5255 267 m
 5255 294 l gs col0 s gr 
%  polyline 
% Polyline
n 5497 267 m
 5497 294 l gs col0 s gr 
%  polyline 
% Polyline
n 5618 267 m
 5618 294 l gs col0 s gr 
%  polyline 
% Polyline
n 5738 267 m
 5738 294 l gs col0 s gr 
%  polyline 
% Polyline
n 5859 267 m
 5859 294 l gs col0 s gr 
%  polyline 
% Polyline
n 6101 267 m
 6101 294 l gs col0 s gr 
%  polyline 
% Polyline
n 6221 267 m
 6221 294 l gs col0 s gr 
%  polyline 
% Polyline
n 6342 267 m
 6342 294 l gs col0 s gr 
%  polyline 
% Polyline
n 6463 267 m
 6463 294 l gs col0 s gr 
%  polyline 
% Polyline
n 4169 2944 m
 4169 267 l gs col0 s gr 
%  polyline 
% Polyline
n 4169 2496 m
 4217 2496 l gs col0 s gr 
%  polyline 
% Polyline
n 4169 1855 m
 4217 1855 l gs col0 s gr 
%  polyline 
% Polyline
n 4169 1214 m
 4217 1214 l gs col0 s gr 
%  polyline 
% Polyline
n 4169 573 m
 4217 573 l gs col0 s gr 
%  polyline 
% Polyline
n 4169 2944 m
 4193 2944 l gs col0 s gr 
%  polyline 
% Polyline
n 4169 2831 m
 4193 2831 l gs col0 s gr 
%  polyline 
% Polyline
n 4169 2751 m
 4193 2751 l gs col0 s gr 
%  polyline 
% Polyline
n 4169 2689 m
 4193 2689 l gs col0 s gr 
%  polyline 
% Polyline
n 4169 2638 m
 4193 2638 l gs col0 s gr 
%  polyline 
% Polyline
n 4169 2596 m
 4193 2596 l gs col0 s gr 
%  polyline 
% Polyline
n 4169 2558 m
 4193 2558 l gs col0 s gr 
%  polyline 
% Polyline
n 4169 2525 m
 4193 2525 l gs col0 s gr 
%  polyline 
% Polyline
n 4169 2303 m
 4193 2303 l gs col0 s gr 
%  polyline 
% Polyline
n 4169 2190 m
 4193 2190 l gs col0 s gr 
%  polyline 
% Polyline
n 4169 2110 m
 4193 2110 l gs col0 s gr 
%  polyline 
% Polyline
n 4169 2048 m
 4193 2048 l gs col0 s gr 
%  polyline 
% Polyline
n 4169 1997 m
 4193 1997 l gs col0 s gr 
%  polyline 
% Polyline
n 4169 1955 m
 4193 1955 l gs col0 s gr 
%  polyline 
% Polyline
n 4169 1917 m
 4193 1917 l gs col0 s gr 
%  polyline 
% Polyline
n 4169 1884 m
 4193 1884 l gs col0 s gr 
%  polyline 
% Polyline
n 4169 1662 m
 4193 1662 l gs col0 s gr 
%  polyline 
% Polyline
n 4169 1549 m
 4193 1549 l gs col0 s gr 
%  polyline 
% Polyline
n 4169 1469 m
 4193 1469 l gs col0 s gr 
%  polyline 
% Polyline
n 4169 1407 m
 4193 1407 l gs col0 s gr 
%  polyline 
% Polyline
n 4169 1356 m
 4193 1356 l gs col0 s gr 
%  polyline 
% Polyline
n 4169 1313 m
 4193 1313 l gs col0 s gr 
%  polyline 
% Polyline
n 4169 1276 m
 4193 1276 l gs col0 s gr 
%  polyline 
% Polyline
n 4169 1244 m
 4193 1244 l gs col0 s gr 
%  polyline 
% Polyline
n 4169 1021 m
 4193 1021 l gs col0 s gr 
%  polyline 
% Polyline
n 4169 908 m
 4193 908 l gs col0 s gr 
%  polyline 
% Polyline
n 4169 828 m
 4193 828 l gs col0 s gr 
%  polyline 
% Polyline
n 4169 766 m
 4193 766 l gs col0 s gr 
%  polyline 
% Polyline
n 4169 715 m
 4193 715 l gs col0 s gr 
%  polyline 
% Polyline
n 4169 672 m
 4193 672 l gs col0 s gr 
%  polyline 
% Polyline
n 4169 635 m
 4193 635 l gs col0 s gr 
%  polyline 
% Polyline
n 4169 602 m
 4193 602 l gs col0 s gr 
%  polyline 
% Polyline
n 4169 380 m
 4193 380 l gs col0 s gr 
%  polyline 
% Polyline
n 4169 267 m
 4193 267 l gs col0 s gr 
%  polyline 
% Polyline
n 6583 2944 m
 6583 267 l gs col0 s gr 
%  polyline 
% Polyline
n 6583 2496 m
 6535 2496 l gs col0 s gr 
%  polyline 
% Polyline
n 6583 1855 m
 6535 1855 l gs col0 s gr 
%  polyline 
% Polyline
n 6583 1214 m
 6535 1214 l gs col0 s gr 
%  polyline 
% Polyline
n 6583 573 m
 6535 573 l gs col0 s gr 
%  polyline 
% Polyline
n 6583 2944 m
 6559 2944 l gs col0 s gr 
%  polyline 
% Polyline
n 6583 2831 m
 6559 2831 l gs col0 s gr 
%  polyline 
% Polyline
n 6583 2751 m
 6559 2751 l gs col0 s gr 
%  polyline 
% Polyline
n 6583 2689 m
 6559 2689 l gs col0 s gr 
%  polyline 
% Polyline
n 6583 2638 m
 6559 2638 l gs col0 s gr 
%  polyline 
% Polyline
n 6583 2596 m
 6559 2596 l gs col0 s gr 
%  polyline 
% Polyline
n 6583 2558 m
 6559 2558 l gs col0 s gr 
%  polyline 
% Polyline
n 6583 2525 m
 6559 2525 l gs col0 s gr 
%  polyline 
% Polyline
n 6583 2303 m
 6559 2303 l gs col0 s gr 
%  polyline 
% Polyline
n 6583 2190 m
 6559 2190 l gs col0 s gr 
%  polyline 
% Polyline
n 6583 2110 m
 6559 2110 l gs col0 s gr 
%  polyline 
% Polyline
n 6583 2048 m
 6559 2048 l gs col0 s gr 
%  polyline 
% Polyline
n 6583 1997 m
 6559 1997 l gs col0 s gr 
%  polyline 
% Polyline
n 6583 1955 m
 6559 1955 l gs col0 s gr 
%  polyline 
% Polyline
n 6583 1917 m
 6559 1917 l gs col0 s gr 
%  polyline 
% Polyline
n 6583 1884 m
 6559 1884 l gs col0 s gr 
%  polyline 
% Polyline
n 6583 1662 m
 6559 1662 l gs col0 s gr 
%  polyline 
% Polyline
n 6583 1549 m
 6559 1549 l gs col0 s gr 
%  polyline 
% Polyline
n 6583 1469 m
 6559 1469 l gs col0 s gr 
%  polyline 
% Polyline
n 6583 1407 m
 6559 1407 l gs col0 s gr 
%  polyline 
% Polyline
n 6583 1356 m
 6559 1356 l gs col0 s gr 
%  polyline 
% Polyline
n 6583 1313 m
 6559 1313 l gs col0 s gr 
%  polyline 
% Polyline
n 6583 1276 m
 6559 1276 l gs col0 s gr 
%  polyline 
% Polyline
n 6583 1244 m
 6559 1244 l gs col0 s gr 
%  polyline 
% Polyline
n 6583 1021 m
 6559 1021 l gs col0 s gr 
%  polyline 
% Polyline
n 6583 908 m
 6559 908 l gs col0 s gr 
%  polyline 
% Polyline
n 6583 828 m
 6559 828 l gs col0 s gr 
%  polyline 
% Polyline
n 6583 766 m
 6559 766 l gs col0 s gr 
%  polyline 
% Polyline
n 6583 715 m
 6559 715 l gs col0 s gr 
%  polyline 
% Polyline
n 6583 672 m
 6559 672 l gs col0 s gr 
%  polyline 
% Polyline
n 6583 635 m
 6559 635 l gs col0 s gr 
%  polyline 
% Polyline
n 6583 602 m
 6559 602 l gs col0 s gr 
%  polyline 
% Polyline
n 6583 380 m
 6559 380 l gs col0 s gr 
%  polyline 
% Polyline
n 6583 267 m
 6559 267 l gs col0 s gr 
%  polyline 
% Polyline
n 6809 2944 m
 9223 2944 l gs col0 s gr 
%  polyline 
% Polyline
n 6809 2944 m
 6809 2891 l gs col0 s gr 
%  polyline 
% Polyline
n 6742 3040 m 6730 3044 l 6722 3056 l 6718 3076 l 6718 3088 l 6722 3107 l
 6730 3120 l 6742 3123 l 6750 3123 l 6761 3120 l 6769 3107 l
 6773 3088 l 6773 3076 l 6769 3056 l 6761 3044 l 6750 3040 l

 6742 3040 l  cp gs col0 s gr 
%  polyline 
% Polyline
n 6805 3116 m 6801 3120 l 6805 3123 l 6809 3120 l
 6805 3116 l  cp gs col0 s gr 
%  polyline 
% Polyline
n 6861 3040 m 6849 3044 l 6841 3056 l 6837 3076 l 6837 3088 l 6841 3107 l
 6849 3120 l 6861 3123 l 6868 3123 l 6880 3120 l 6888 3107 l
 6892 3088 l 6892 3076 l 6888 3056 l 6880 3044 l 6868 3040 l

 6861 3040 l  cp gs col0 s gr 
%  polyline 
% Polyline
n 7413 2944 m
 7413 2891 l gs col0 s gr 
%  polyline 
% Polyline
n 7345 3040 m 7333 3044 l 7325 3056 l 7321 3076 l 7321 3088 l 7325 3107 l
 7333 3120 l 7345 3123 l 7353 3123 l 7365 3120 l 7373 3107 l
 7377 3088 l 7377 3076 l 7373 3056 l 7365 3044 l 7353 3040 l

 7345 3040 l  cp gs col0 s gr 
%  polyline 
% Polyline
n 7409 3116 m 7405 3120 l 7409 3123 l 7413 3120 l
 7409 3116 l  cp gs col0 s gr 
%  polyline 
% Polyline
n 7488 3040 m 7448 3040 l 7444 3076 l 7448 3072 l 7460 3068 l 7472 3068 l
 7484 3072 l 7492 3080 l 7496 3092 l 7496 3100 l 7492 3112 l
 7484 3120 l 7472 3123 l 7460 3123 l 7448 3120 l 7444 3116 l

 7440 3108 l gs col0 s gr 
%  polyline 
% Polyline
n 8016 2944 m
 8016 2891 l gs col0 s gr 
%  polyline 
% Polyline
n 7937 3056 m 7945 3052 l 7957 3040 l
 7957 3124 l gs col0 s gr 
%  polyline 
% Polyline
n 8012 3116 m 8008 3120 l 8012 3123 l 8016 3120 l
 8012 3116 l  cp gs col0 s gr 
%  polyline 
% Polyline
n 8068 3040 m 8056 3044 l 8048 3056 l 8044 3076 l 8044 3088 l 8048 3107 l
 8056 3120 l 8068 3123 l 8076 3123 l 8087 3120 l 8095 3107 l
 8099 3088 l 8099 3076 l 8095 3056 l 8087 3044 l 8076 3040 l

 8068 3040 l  cp gs col0 s gr 
%  polyline 
% Polyline
n 8620 2944 m
 8620 2891 l gs col0 s gr 
%  polyline 
% Polyline
n 8541 3056 m 8548 3052 l 8560 3040 l
 8560 3124 l gs col0 s gr 
%  polyline 
% Polyline
n 8616 3116 m 8612 3120 l 8616 3123 l 8620 3120 l
 8616 3116 l  cp gs col0 s gr 
%  polyline 
% Polyline
n 8695 3040 m 8655 3040 l 8652 3076 l 8655 3072 l 8667 3068 l 8679 3068 l
 8691 3072 l 8699 3080 l 8703 3092 l 8703 3100 l 8699 3112 l
 8691 3120 l 8679 3123 l 8667 3123 l 8655 3120 l 8652 3116 l

 8647 3108 l gs col0 s gr 
%  polyline 
% Polyline
n 9223 2944 m
 9223 2891 l gs col0 s gr 
%  polyline 
% Polyline
n 9136 3060 m 9136 3056 l 9140 3048 l 9144 3044 l 9152 3040 l 9168 3040 l
 9176 3044 l 9180 3048 l 9184 3056 l 9184 3064 l 9180 3072 l
 9172 3084 l 9132 3123 l
 9188 3123 l gs col0 s gr 
%  polyline 
% Polyline
n 9219 3116 m 9216 3120 l 9219 3123 l 9223 3120 l
 9219 3116 l  cp gs col0 s gr 
%  polyline 
% Polyline
n 9275 3040 m 9263 3044 l 9255 3056 l 9251 3076 l 9251 3088 l 9255 3107 l
 9263 3120 l 9275 3123 l 9283 3123 l 9295 3120 l 9303 3107 l
 9307 3088 l 9307 3076 l 9303 3056 l 9295 3044 l 9283 3040 l

 9275 3040 l  cp gs col0 s gr 
%  polyline 
% Polyline
n 6930 2944 m
 6930 2917 l gs col0 s gr 
%  polyline 
% Polyline
n 7050 2944 m
 7050 2917 l gs col0 s gr 
%  polyline 
% Polyline
n 7171 2944 m
 7171 2917 l gs col0 s gr 
%  polyline 
% Polyline
n 7292 2944 m
 7292 2917 l gs col0 s gr 
%  polyline 
% Polyline
n 7533 2944 m
 7533 2917 l gs col0 s gr 
%  polyline 
% Polyline
n 7654 2944 m
 7654 2917 l gs col0 s gr 
%  polyline 
% Polyline
n 7775 2944 m
 7775 2917 l gs col0 s gr 
%  polyline 
% Polyline
n 7895 2944 m
 7895 2917 l gs col0 s gr 
%  polyline 
% Polyline
n 8137 2944 m
 8137 2917 l gs col0 s gr 
%  polyline 
% Polyline
n 8258 2944 m
 8258 2917 l gs col0 s gr 
%  polyline 
% Polyline
n 8378 2944 m
 8378 2917 l gs col0 s gr 
%  polyline 
% Polyline
n 8499 2944 m
 8499 2917 l gs col0 s gr 
%  polyline 
% Polyline
n 8741 2944 m
 8741 2917 l gs col0 s gr 
%  polyline 
% Polyline
n 8861 2944 m
 8861 2917 l gs col0 s gr 
%  polyline 
% Polyline
n 8982 2944 m
 8982 2917 l gs col0 s gr 
%  polyline 
% Polyline
n 9103 2944 m
 9103 2917 l gs col0 s gr 
%  polyline 
% Polyline
n 7575 3239 m 7580 3231 l 7587 3223 l 7599 3223 l 7603 3227 l 7603 3235 l
 7599 3251 l
 7591 3279 l gs col0 s gr 
%  polyline 
% Polyline
n 7595 3223 m 7599 3227 l 7599 3235 l 7595 3251 l
 7587 3279 l gs col0 s gr 
%  polyline 
% Polyline
n 7599 3251 m 7607 3235 l 7615 3227 l 7623 3223 l 7631 3223 l 7639 3227 l
 7643 3231 l 7643 3239 l 7635 3263 l 7635 3275 l
 7639 3279 l gs col0 s gr 
%  polyline 
% Polyline
n 7631 3223 m 7639 3231 l 7639 3239 l 7631 3263 l 7631 3275 l 7635 3279 l
 7647 3279 l 7655 3271 l
 7659 3263 l gs col0 s gr 
%  polyline 
% Polyline
n 7738 3180 m
 7738 3310 l gs col0 s gr 
%  polyline 
% Polyline
n 7742 3180 m
 7742 3310 l gs col0 s gr 
%  polyline 
% Polyline
n 7738 3180 m
 7766 3180 l gs col0 s gr 
%  polyline 
% Polyline
n 7738 3310 m
 7766 3310 l gs col0 s gr 
%  polyline 
% Polyline
n 7802 3211 m 7809 3207 l 7821 3196 l
 7821 3279 l gs col0 s gr 
%  polyline 
% Polyline
n 7893 3196 m 7881 3199 l 7873 3211 l 7869 3231 l 7869 3243 l 7873 3263 l
 7881 3275 l 7893 3279 l 7901 3279 l 7913 3275 l 7920 3263 l
 7925 3243 l 7925 3231 l 7920 3211 l 7913 3199 l 7901 3196 l

 7893 3196 l  cp gs col0 s gr 
%  polyline 
% Polyline
n 7953 3177 m 7958 3174 l 7965 3167 l
 7965 3219 l gs col0 s gr 
%  polyline 
% Polyline
n 7997 3179 m 7997 3177 l 7999 3172 l 8002 3169 l 8007 3167 l 8016 3167 l
 8021 3169 l 8024 3172 l 8026 3177 l 8026 3182 l 8024 3187 l
 8019 3194 l 7994 3219 l
 8029 3219 l gs col0 s gr 
%  polyline 
% Polyline
n 8158 3235 m 8150 3227 l 8142 3223 l 8130 3223 l 8122 3227 l 8114 3235 l
 8110 3247 l 8110 3255 l 8114 3267 l 8122 3275 l 8130 3279 l
 8142 3279 l 8150 3275 l
 8158 3267 l gs col0 s gr 
%  polyline 
% Polyline
n 8185 3223 m
 8185 3279 l gs col0 s gr 
%  polyline 
% Polyline
n 8185 3239 m 8197 3227 l 8205 3223 l 8217 3223 l 8225 3227 l 8229 3239 l

 8229 3279 l gs col0 s gr 
%  polyline 
% Polyline
n 8229 3239 m 8241 3227 l 8249 3223 l 8261 3223 l 8269 3227 l 8272 3239 l

 8272 3279 l gs col0 s gr 
%  polyline 
% Polyline
n 8300 3196 m
 8344 3196 l gs col0 s gr 
%  polyline 
% Polyline
n 8364 3179 m 8364 3177 l 8366 3172 l 8368 3169 l 8373 3167 l 8383 3167 l
 8388 3169 l 8390 3172 l 8393 3177 l 8393 3182 l 8390 3187 l
 8386 3194 l 8361 3219 l
 8395 3219 l gs col0 s gr 
%  polyline 
% Polyline
n 8437 3180 m
 8437 3310 l gs col0 s gr 
%  polyline 
% Polyline
n 8441 3180 m
 8441 3310 l gs col0 s gr 
%  polyline 
% Polyline
n 8413 3180 m
 8441 3180 l gs col0 s gr 
%  polyline 
% Polyline
n 8413 3310 m
 8441 3310 l gs col0 s gr 
%  polyline 
% Polyline
n 6809 267 m
 9223 267 l gs col0 s gr 
%  polyline 
% Polyline
n 6809 267 m
 6809 321 l gs col0 s gr 
%  polyline 
% Polyline
n 7413 267 m
 7413 321 l gs col0 s gr 
%  polyline 
% Polyline
n 8016 267 m
 8016 321 l gs col0 s gr 
%  polyline 
% Polyline
n 8620 267 m
 8620 321 l gs col0 s gr 
%  polyline 
% Polyline
n 9223 267 m
 9223 321 l gs col0 s gr 
%  polyline 
% Polyline
n 6930 267 m
 6930 294 l gs col0 s gr 
%  polyline 
% Polyline
n 7050 267 m
 7050 294 l gs col0 s gr 
%  polyline 
% Polyline
n 7171 267 m
 7171 294 l gs col0 s gr 
%  polyline 
% Polyline
n 7292 267 m
 7292 294 l gs col0 s gr 
%  polyline 
% Polyline
n 7533 267 m
 7533 294 l gs col0 s gr 
%  polyline 
% Polyline
n 7654 267 m
 7654 294 l gs col0 s gr 
%  polyline 
% Polyline
n 7775 267 m
 7775 294 l gs col0 s gr 
%  polyline 
% Polyline
n 7895 267 m
 7895 294 l gs col0 s gr 
%  polyline 
% Polyline
n 8137 267 m
 8137 294 l gs col0 s gr 
%  polyline 
% Polyline
n 8258 267 m
 8258 294 l gs col0 s gr 
%  polyline 
% Polyline
n 8378 267 m
 8378 294 l gs col0 s gr 
%  polyline 
% Polyline
n 8499 267 m
 8499 294 l gs col0 s gr 
%  polyline 
% Polyline
n 8741 267 m
 8741 294 l gs col0 s gr 
%  polyline 
% Polyline
n 8861 267 m
 8861 294 l gs col0 s gr 
%  polyline 
% Polyline
n 8982 267 m
 8982 294 l gs col0 s gr 
%  polyline 
% Polyline
n 9103 267 m
 9103 294 l gs col0 s gr 
%  polyline 
% Polyline
n 6809 2944 m
 6809 267 l gs col0 s gr 
%  polyline 
% Polyline
n 6809 2496 m
 6857 2496 l gs col0 s gr 
%  polyline 
% Polyline
n 6809 1855 m
 6857 1855 l gs col0 s gr 
%  polyline 
% Polyline
n 6809 1214 m
 6857 1214 l gs col0 s gr 
%  polyline 
% Polyline
n 6809 573 m
 6857 573 l gs col0 s gr 
%  polyline 
% Polyline
n 6809 2944 m
 6833 2944 l gs col0 s gr 
%  polyline 
% Polyline
n 6809 2831 m
 6833 2831 l gs col0 s gr 
%  polyline 
% Polyline
n 6809 2751 m
 6833 2751 l gs col0 s gr 
%  polyline 
% Polyline
n 6809 2689 m
 6833 2689 l gs col0 s gr 
%  polyline 
% Polyline
n 6809 2638 m
 6833 2638 l gs col0 s gr 
%  polyline 
% Polyline
n 6809 2596 m
 6833 2596 l gs col0 s gr 
%  polyline 
% Polyline
n 6809 2558 m
 6833 2558 l gs col0 s gr 
%  polyline 
% Polyline
n 6809 2525 m
 6833 2525 l gs col0 s gr 
%  polyline 
% Polyline
n 6809 2303 m
 6833 2303 l gs col0 s gr 
%  polyline 
% Polyline
n 6809 2190 m
 6833 2190 l gs col0 s gr 
%  polyline 
% Polyline
n 6809 2110 m
 6833 2110 l gs col0 s gr 
%  polyline 
% Polyline
n 6809 2048 m
 6833 2048 l gs col0 s gr 
%  polyline 
% Polyline
n 6809 1997 m
 6833 1997 l gs col0 s gr 
%  polyline 
% Polyline
n 6809 1955 m
 6833 1955 l gs col0 s gr 
%  polyline 
% Polyline
n 6809 1917 m
 6833 1917 l gs col0 s gr 
%  polyline 
% Polyline
n 6809 1884 m
 6833 1884 l gs col0 s gr 
%  polyline 
% Polyline
n 6809 1662 m
 6833 1662 l gs col0 s gr 
%  polyline 
% Polyline
n 6809 1549 m
 6833 1549 l gs col0 s gr 
%  polyline 
% Polyline
n 6809 1469 m
 6833 1469 l gs col0 s gr 
%  polyline 
% Polyline
n 6809 1407 m
 6833 1407 l gs col0 s gr 
%  polyline 
% Polyline
n 6809 1356 m
 6833 1356 l gs col0 s gr 
%  polyline 
% Polyline
n 6809 1313 m
 6833 1313 l gs col0 s gr 
%  polyline 
% Polyline
n 6809 1276 m
 6833 1276 l gs col0 s gr 
%  polyline 
% Polyline
n 6809 1244 m
 6833 1244 l gs col0 s gr 
%  polyline 
% Polyline
n 6809 1021 m
 6833 1021 l gs col0 s gr 
%  polyline 
% Polyline
n 6809 908 m
 6833 908 l gs col0 s gr 
%  polyline 
% Polyline
n 6809 828 m
 6833 828 l gs col0 s gr 
%  polyline 
% Polyline
n 6809 766 m
 6833 766 l gs col0 s gr 
%  polyline 
% Polyline
n 6809 715 m
 6833 715 l gs col0 s gr 
%  polyline 
% Polyline
n 6809 672 m
 6833 672 l gs col0 s gr 
%  polyline 
% Polyline
n 6809 635 m
 6833 635 l gs col0 s gr 
%  polyline 
% Polyline
n 6809 602 m
 6833 602 l gs col0 s gr 
%  polyline 
% Polyline
n 6809 380 m
 6833 380 l gs col0 s gr 
%  polyline 
% Polyline
n 6809 267 m
 6833 267 l gs col0 s gr 
%  polyline 
% Polyline
n 9223 2944 m
 9223 267 l gs col0 s gr 
%  polyline 
% Polyline
n 9223 2496 m
 9175 2496 l gs col0 s gr 
%  polyline 
% Polyline
n 9223 1855 m
 9175 1855 l gs col0 s gr 
%  polyline 
% Polyline
n 9223 1214 m
 9175 1214 l gs col0 s gr 
%  polyline 
% Polyline
n 9223 573 m
 9175 573 l gs col0 s gr 
%  polyline 
% Polyline
n 9223 2944 m
 9199 2944 l gs col0 s gr 
%  polyline 
% Polyline
n 9223 2831 m
 9199 2831 l gs col0 s gr 
%  polyline 
% Polyline
n 9223 2751 m
 9199 2751 l gs col0 s gr 
%  polyline 
% Polyline
n 9223 2689 m
 9199 2689 l gs col0 s gr 
%  polyline 
% Polyline
n 9223 2638 m
 9199 2638 l gs col0 s gr 
%  polyline 
% Polyline
n 9223 2596 m
 9199 2596 l gs col0 s gr 
%  polyline 
% Polyline
n 9223 2558 m
 9199 2558 l gs col0 s gr 
%  polyline 
% Polyline
n 9223 2525 m
 9199 2525 l gs col0 s gr 
%  polyline 
% Polyline
n 9223 2303 m
 9199 2303 l gs col0 s gr 
%  polyline 
% Polyline
n 9223 2190 m
 9199 2190 l gs col0 s gr 
%  polyline 
% Polyline
n 9223 2110 m
 9199 2110 l gs col0 s gr 
%  polyline 
% Polyline
n 9223 2048 m
 9199 2048 l gs col0 s gr 
%  polyline 
% Polyline
n 9223 1997 m
 9199 1997 l gs col0 s gr 
%  polyline 
% Polyline
n 9223 1955 m
 9199 1955 l gs col0 s gr 
%  polyline 
% Polyline
n 9223 1917 m
 9199 1917 l gs col0 s gr 
%  polyline 
% Polyline
n 9223 1884 m
 9199 1884 l gs col0 s gr 
%  polyline 
% Polyline
n 9223 1662 m
 9199 1662 l gs col0 s gr 
%  polyline 
% Polyline
n 9223 1549 m
 9199 1549 l gs col0 s gr 
%  polyline 
% Polyline
n 9223 1469 m
 9199 1469 l gs col0 s gr 
%  polyline 
% Polyline
n 9223 1407 m
 9199 1407 l gs col0 s gr 
%  polyline 
% Polyline
n 9223 1356 m
 9199 1356 l gs col0 s gr 
%  polyline 
% Polyline
n 9223 1313 m
 9199 1313 l gs col0 s gr 
%  polyline 
% Polyline
n 9223 1276 m
 9199 1276 l gs col0 s gr 
%  polyline 
% Polyline
n 9223 1244 m
 9199 1244 l gs col0 s gr 
%  polyline 
% Polyline
n 9223 1021 m
 9199 1021 l gs col0 s gr 
%  polyline 
% Polyline
n 9223 908 m
 9199 908 l gs col0 s gr 
%  polyline 
% Polyline
n 9223 828 m
 9199 828 l gs col0 s gr 
%  polyline 
% Polyline
n 9223 766 m
 9199 766 l gs col0 s gr 
%  polyline 
% Polyline
n 9223 715 m
 9199 715 l gs col0 s gr 
%  polyline 
% Polyline
n 9223 672 m
 9199 672 l gs col0 s gr 
%  polyline 
% Polyline
n 9223 635 m
 9199 635 l gs col0 s gr 
%  polyline 
% Polyline
n 9223 602 m
 9199 602 l gs col0 s gr 
%  polyline 
% Polyline
n 9223 380 m
 9199 380 l gs col0 s gr 
%  polyline 
% Polyline
n 9223 267 m
 9199 267 l gs col0 s gr 
% here ends figure;
pagefooter
showpage
%%Trailer
%EOF
