\relax 
\@writefile{toc}{\contentsline {chapter}{\numberline {2}Mathematical Formulation}{5}{}\protected@file@percent }
\@writefile{lof}{\addvspace {10\p@ }}
\@writefile{lot}{\addvspace {10\p@ }}
\newlabel{mathchapter}{{2}{5}}
\newlabel{eq:rmom}{{2.2}{5}}
\@writefile{lof}{\contentsline {figure}{\numberline {2.1}{\ignorespaces Cutting up a triangular pyramid}}{6}{}\protected@file@percent }
\newlabel{fig:pyramid}{{2.1}{6}}
\newlabel{tbl:sample2}{{2}{7}}
\@writefile{lot}{\contentsline {table}{\numberline {2.1}{\ignorespaces Yet another {\tt  tabular} table}}{7}{}\protected@file@percent }
\@writefile{lot}{\contentsline {table}{\numberline {2.2}{\ignorespaces Table from a PostScript file}}{7}{}\protected@file@percent }
\newlabel{tbl:sample3}{{2.2}{7}}
\@writefile{toc}{\contentsline {section}{\numberline {2.1}Conditions for Catastrophic Combustion}{8}{}\protected@file@percent }
\newlabel{sec:cata}{{2.1}{8}}
\newlabel{eq:endwall}{{2.3}{8}}
\newlabel{eq:endnoslip}{{2.4}{8}}
\newlabel{eq:centerline}{{2.5}{8}}
\newlabel{eq:injection}{{2.6}{8}}
\newlabel{eq:sidenoslip}{{2.7}{8}}
\@writefile{toc}{\contentsline {section}{\numberline {2.2}More Boundary Conditions}{8}{}\protected@file@percent }
\newlabel{sec:bcs}{{2.2}{8}}
\citation{mulick}
\citation{baylor}
\newlabel{eqB:endnoslip}{{2.8}{9}}
\newlabel{eqB:injection}{{2.9}{9}}
\newlabel{eqB:sidenoslip}{{2.10}{9}}
\newlabel{ss}{{2.2.1}{9}}
\@writefile{toc}{\contentsline {subsection}{\numberline {2.2.1}Just Meaningless Text to Test Lines per Page }{9}{}\protected@file@percent }
\@writefile{toc}{\contentsline {subsection}{\numberline {2.2.2}This Is a Subsection}{11}{}\protected@file@percent }
\@writefile{toc}{\contentsline {subsection}{\numberline {2.2.3}This Is Another Subsection}{11}{}\protected@file@percent }
\@writefile{toc}{\contentsline {paragraph}{This Is a Paragraph}{11}{}\protected@file@percent }
\@writefile{toc}{\contentsline {paragraph}{What Is It?}{11}{}\protected@file@percent }
\@writefile{toc}{\contentsline {section}{\numberline {2.3}Sideways Tables}{12}{}\protected@file@percent }
\@writefile{toc}{\contentsline {section}{\numberline {2.4}Sideways Figures}{12}{}\protected@file@percent }
\@writefile{toc}{\contentsline {section}{\numberline {2.5}The End}{12}{}\protected@file@percent }
\newlabel{sec:end}{{2.5}{12}}
\newlabel{RF1}{13}
\@writefile{lot}{\contentsline {table}{\numberline {2.3}{\ignorespaces A big table that needs to go sideways -- easy with \LaTeX  .}}{13}{}\protected@file@percent }
\newlabel{tbl:sidewaysT}{{2.3}{13}}
\newlabel{RF2}{14}
\@writefile{lof}{\contentsline {figure}{\numberline {2.2}{\ignorespaces A big figure that needs to go sideways.}}{14}{}\protected@file@percent }
\newlabel{fig:sidewaysF}{{2.2}{14}}
\@setckpt{ch2}{
\setcounter{page}{15}
\setcounter{equation}{10}
\setcounter{enumi}{0}
\setcounter{enumii}{0}
\setcounter{enumiii}{0}
\setcounter{enumiv}{0}
\setcounter{footnote}{4}
\setcounter{mpfootnote}{0}
\setcounter{part}{0}
\setcounter{chapter}{2}
\setcounter{section}{5}
\setcounter{subsection}{0}
\setcounter{subsubsection}{0}
\setcounter{paragraph}{0}
\setcounter{subparagraph}{0}
\setcounter{figure}{2}
\setcounter{table}{3}
\setcounter{r@tfl@t}{2}
}
