\hspace *{\fill }Page\par 
\contentsline {chapter}{List of Tables}{vi}{}%
\contentsline {chapter}{List of Figures}{vii}{}%
\noindent Chapter\par 
\contentsline {chapter}{\numberline {1}Introduction}{1}{}%
\contentsline {section}{\numberline {1.1}This Is a Section (Level 2)}{1}{}%
\contentsline {subsection}{\numberline {1.1.1}So Here We Have a Subsection (Level 3)}{1}{}%
\contentsline {subsubsection}{\numberline {1.1.1.1}And Here a \LaTeX \ Subsubsection (Level 4)}{2}{}%
\contentsline {paragraph}{And Here Yet Lower Sectioning, a Paragraph (Level 5)}{2}{}%
\contentsline {section}{\numberline {1.2}This Is a Section (Level 2)}{2}{}%
\contentsline {section}{\numberline {1.3}This Is a Section (Level 2)}{2}{}%
\contentsline {section}{\numberline {1.4}This Is a Long Section Title That Needs to Be Broken Over Two Lines -- or May Be Three? We Will See $\dots $}{3}{}%
\contentsline {subsection}{\numberline {1.4.1}Question: What Are the Issues in Studying This Subject?}{3}{}%
\contentsline {chapter}{\numberline {2}Mathematical Formulation}{5}{}%
\contentsline {section}{\numberline {2.1}Conditions for Catastrophic Combustion}{8}{}%
\contentsline {section}{\numberline {2.2}More Boundary Conditions}{8}{}%
\contentsline {subsection}{\numberline {2.2.1}Just Meaningless Text to Test Lines per Page }{9}{}%
\contentsline {subsection}{\numberline {2.2.2}This Is a Subsection}{11}{}%
\contentsline {subsection}{\numberline {2.2.3}This Is Another Subsection}{11}{}%
\contentsline {paragraph}{This Is a Paragraph}{11}{}%
\contentsline {paragraph}{What Is It?}{11}{}%
\contentsline {section}{\numberline {2.3}Sideways Tables}{12}{}%
\contentsline {section}{\numberline {2.4}Sideways Figures}{12}{}%
\contentsline {section}{\numberline {2.5}The End}{12}{}%
\contentsline {chapter}{References}{15}{}%
\contentsline {chapter}{Appendix: Ode to Spot}{17}{}%
\contentsfinish 
