\relax 
\@writefile{toc}{\hspace  *{\fill }Page\par }
\@writefile{lot}{\noindent Table\hfill Page\par }
\@writefile{lof}{\noindent Figure\hfill Page\par }
\@writefile{loa}{\noindent Appendix\hfill Page\par }
\@writefile{toc}{\contentsline {chapter}{List of Tables}{vi}{}\protected@file@percent }
\@writefile{toc}{\contentsline {chapter}{List of Figures}{vii}{}\protected@file@percent }
\@writefile{toc}{\noindent Chapter\par }
\@input{ch1.aux}
\gdef\th@lotflag{}
\@input{ch2.aux}
\gdef\th@lofflag{}
\@input{refs.aux}
\@input{app1.aux}
\@input{app2.aux}
\gdef\th@loacount{1}
\ttl@finishall
\gdef \@abspage@last{26}
