\noindent Figure\hfill Page\par 
\addvspace {10\p@ }
\addvspace {10\p@ }
\contentsline {figure}{\numberline {2.1}{\ignorespaces Cutting up a triangular pyramid}}{6}{}%
\contentsline {figure}{\numberline {2.2}{\ignorespaces A big figure that needs to go sideways.}}{14}{}%
\addvspace {10\p@ }
\contentsfinish 
