%!PS-Adobe-2 EPSF-2
%%BoundingBox: 88 189 518 713

/l {lineto} bind def
/m {moveto} bind def
/s {stroke} bind def
/n {newpath} bind def
/gs {gsave} bind def
/gr {grestore} bind def
/clp {closepath} bind def
0 setlinecap 0 setlinejoin
13.5 777 translate 0.9 -0.9 scale

4 setlinewidth

319 74 m 459 649 l 89 564 l 319 74 l 559 354 l 459 649 l s

1 setlinecap [1 9] 9 setdash
559 354 m 89 564 l s

[] 0 setdash 0 setlinecap
0.500 setlinewidth
441 216 m 388 364 l 203 322 l clp s
442 438 m 389 586 l 204 544 l clp s
205 322 m 204 544 l s
390 588 m 388 364 l s
443 216 m 441 439 l s

1 setlinewidth
[6] 0 setdash

204 545 m 174 583 l s
205 544 m 176 525 l s
391 587 m 477 597 l s
390 590 m 360 628 l s
443 439 m 529 449 l s
444 441 m 415 422 l s
529 451 m 443 218 l s
361 625 m 388 364 l s
176 526 m 205 322 l s
175 586 m 202 325 l s
413 420 m 442 216 l s
477 597 m 391 364 l s

[] 0 setdash 0.500 setlinewidth

183 572 m 194 575 l 187 584 l s
199 553 m 211 556 l 217 548 l s
352 623 m 358 616 l 368 618 l s
381 585 m 376 591 l 388 593 l s
393 575 m 403 576 l 398 586 l 389 585 l clp s
470 586 m 480 587 l 475 597 l 466 596 l clp s
517 447 m 527 448 l 522 458 l 513 457 l clp s
442 439 m 452 440 l 447 450 l 438 449 l clp s
442 439 m 432 443 l 425 439 l 435 435 l clp s
418 424 m 408 428 l 401 424 l 411 420 l clp s
216 539 m 206 543 l 199 539 l 209 535 l clp s
193 524 m 183 528 l 176 524 l 186 520 l clp s


showpage
