%!PS-Adobe-2 EPSF-2
%%BoundingBox: 50 548 560 710
%%EndComments
%%BeginProlog
[ /.notdef /.notdef /.notdef /.notdef /.notdef /.notdef /.notdef /.notdef /.notdef /.notdef
 /.notdef /.notdef /.notdef /.notdef /.notdef /.notdef /.notdef /.notdef /.notdef /.notdef
 /.notdef /.notdef /.notdef /.notdef /.notdef /.notdef /.notdef /.notdef /.notdef /.notdef
 /.notdef /.notdef /space /exclam /quotedbl /numbersign /dollar /percent /ampersand /quoteright
 /parenleft /parenright /asterisk /plus /comma /hyphen /period /slash /zero /one
 /two /three /four /five /six /seven /eight /nine /colon /semicolon
 /less /equal /greater /question /at /A /B /C /D /E
 /F /G /H /I /J /K /L /M /N /O
 /P /Q /R /S /T /U /V /W /X /Y
 /Z /bracketleft /backslash /bracketright /asciicircum /underscore /quoteleft /a /b /c
 /d /e /f /g /h /i /j /k /l /m
 /n /o /p /q /r /s /t /u /v /w
 /x /y /z /braceleft /bar /braceright /asciitilde /.notdef /.notdef /.notdef
 /.notdef /.notdef /.notdef /.notdef /.notdef /.notdef /.notdef /.notdef /.notdef /.notdef
 /.notdef /.notdef /.notdef /.notdef /.notdef /.notdef /.notdef /.notdef /.notdef /.notdef
 /.notdef /.notdef /.notdef /.notdef /.notdef /.notdef /.notdef /.notdef /.notdef /.notdef
 /space /exclamdown /cent /sterling /currency /yen /brokenbar /section /dieresis /copyright
 /ordfeminine /guillemotleft /logicalnot /hyphen /registered /macron /degree /plusminus /twosuperior /threesuperior
 /acute /mu /paragraph /periodcentered /cedilla /onesuperior /ordmasculine /guillemotright /onequarter /onehalf
 /threequarters /questiondown /Agrave /Aacute /Acircumflex /Atilde /Adieresis /Aring /AE /Ccedilla
 /Egrave /Eacute /Ecircumflex /Edieresis /Igrave /Iacute /Icircumflex /Idieresis /Eth /Ntilde
 /Ograve /Oacute /Ocircumflex /Otilde /Odieresis /multiply /Oslash /Ugrave /Uacute /Ucircumflex
 /Udieresis /Yacute /Thorn /germandbls /agrave /aacute /acircumflex /atilde /adieresis /aring
 /ae /ccedilla /egrave /eacute /ecircumflex /edieresis /igrave /iacute /icircumflex /idieresis
 /eth /ntilde /ograve /oacute /ocircumflex /otilde /odieresis /divide /oslash /ugrave
 /uacute /ucircumflex /udieresis /yacute /thorn /ydieresis] /isolatin1encoding exch def
/c { matrix currentmatrix currentpoint translate
     3 1 roll scale newpath 0 0 1 0 360 arc setmatrix } bind def
/F0
    /Times-Roman findfont
    dup length dict begin
	{1 index /FID ne {def} {pop pop} ifelse} forall
	/Encoding isolatin1encoding def
    currentdict end
definefont pop
/f0 { /F0 findfont exch scalefont setfont } bind def
/F1
    /Times-Bold findfont
    dup length dict begin
	{1 index /FID ne {def} {pop pop} ifelse} forall
	/Encoding isolatin1encoding def
    currentdict end
definefont pop
/f1 { /F1 findfont exch scalefont setfont } bind def
/F2
    /Times-Italic findfont
    dup length dict begin
	{1 index /FID ne {def} {pop pop} ifelse} forall
	/Encoding isolatin1encoding def
    currentdict end
definefont pop
/f2 { /F2 findfont exch scalefont setfont } bind def
/F3
    /Times-BoldItalic findfont
    dup length dict begin
	{1 index /FID ne {def} {pop pop} ifelse} forall
	/Encoding isolatin1encoding def
    currentdict end
definefont pop
/f3 { /F3 findfont exch scalefont setfont } bind def
/F4
    /Courier findfont
    dup length dict begin
	{1 index /FID ne {def} {pop pop} ifelse} forall
	/Encoding isolatin1encoding def
    currentdict end
definefont pop
/f4 { /F4 findfont exch scalefont setfont } bind def
/F5
    /Courier-Bold findfont
    dup length dict begin
	{1 index /FID ne {def} {pop pop} ifelse} forall
	/Encoding isolatin1encoding def
    currentdict end
definefont pop
/f5 { /F5 findfont exch scalefont setfont } bind def
/F6
    /Courier-Oblique findfont
    dup length dict begin
	{1 index /FID ne {def} {pop pop} ifelse} forall
	/Encoding isolatin1encoding def
    currentdict end
definefont pop
/f6 { /F6 findfont exch scalefont setfont } bind def
/F7
    /Courier-BoldOblique findfont
    dup length dict begin
	{1 index /FID ne {def} {pop pop} ifelse} forall
	/Encoding isolatin1encoding def
    currentdict end
definefont pop
/f7 { /F7 findfont exch scalefont setfont } bind def
/rhc {
    {
        currentfile read {
	    dup 97 ge
		{ 87 sub true exit }
		{ dup 48 ge { 48 sub true exit } { pop } ifelse }
	    ifelse
	} {
	    false
	    exit
	} ifelse
    } loop
} bind def

/cvgray { % xtra_char npix cvgray - (string npix long)
    dup string
    0
    {
	rhc { cvr 4.784 mul } { exit } ifelse
	rhc { cvr 9.392 mul } { exit } ifelse
	rhc { cvr 1.824 mul } { exit } ifelse
	add add cvi 3 copy put pop
	1 add
	dup 3 index ge { exit } if
    } loop
    pop
    3 -1 roll 0 ne { rhc { pop } if } if
    exch pop
} bind def

/smartimage12rgb { % w h b [matrix] smartimage12rgb -
    /colorimage where {
	pop
	{ currentfile rowdata readhexstring pop }
	false 3
	colorimage
    } {
	exch pop 8 exch
	3 index 12 mul 8 mod 0 ne { 1 } { 0 } ifelse
	4 index
	6 2 roll
	{ 2 copy cvgray }
	image
	pop pop
    } ifelse
} def
/cshow { dup stringwidth pop 2 div neg 0 rmoveto show } bind def
/rshow { dup stringwidth pop neg 0 rmoveto show } bind def
/BeginEPSF {
  /b4_Inc_state save def
  /dict_count countdictstack def
  /op_count count 1 sub def
  userdict begin
  /showpage {} def
  0 setgray 0 setlinecap 1 setlinewidth 0 setlinejoin
  10 setmiterlimit [] 0 setdash newpath
  /languagelevel where
  { pop languagelevel 1 ne
    { false setstrokeadjust false setoverprint } if
  } if
} bind def
/EndEPSF {
  count op_count sub {pop} repeat
  countdictstack dict_count sub {end} repeat
  b4_Inc_state restore
} bind def
%%EndProlog
%%Page: 1 1
%%BeginPageSetup
/pagelevel save def
54 0 translate
%%EndPageSetup
newpath 0 72 moveto 504 0 rlineto 0 648 rlineto -504 0 rlineto  closepath clip newpath
0 709.2 moveto
12 f0
(  ) show
gsave 1.4 setlinewidth
 0.2 706.6 moveto
503.5 0 rlineto 0 -155.1 rlineto -503.5 0 rlineto closepath  stroke 
grestore
gsave 0.7 setlinewidth
 3.7 703.1 moveto
81 0 rlineto 0 -22.1 rlineto -81 0 rlineto closepath  stroke 
grestore
40.9 687.8 moveto
12 f1
(n) show
gsave 0.7 setlinewidth
 86.8 703.1 moveto
81 0 rlineto 0 -22.1 rlineto -81 0 rlineto closepath  stroke 
grestore
121.5 686.4 moveto
12 f1
(n) show
128.1 691 moveto
10 f1
(2) show
gsave 0.7 setlinewidth
 169.9 703.1 moveto
81 0 rlineto 0 -22.1 rlineto -81 0 rlineto closepath  stroke 
grestore
204.6 686.4 moveto
12 f1
(n) show
211.2 691 moveto
10 f1
(3) show
gsave 0.7 setlinewidth
 253 703.1 moveto
81 0 rlineto 0 -22.1 rlineto -81 0 rlineto closepath  stroke 
grestore
287.7 686.4 moveto
12 f1
(n) show
294.3 691 moveto
10 f1
(4) show
gsave 0.7 setlinewidth
 336.1 703.1 moveto
81 0 rlineto 0 -22.1 rlineto -81 0 rlineto closepath  stroke 
grestore
370.8 686.4 moveto
12 f1
(n) show
377.4 691 moveto
10 f1
(7) show
gsave 0.7 setlinewidth
 419.2 703.1 moveto
81 0 rlineto 0 -22.1 rlineto -81 0 rlineto closepath  stroke 
grestore
451.4 686.4 moveto
12 f1
(n) show
458 691 moveto
10 f1
(13) show
gsave 0.7 setlinewidth
 3.7 678.9 moveto
81 0 rlineto 0 -18.9 rlineto -81 0 rlineto closepath  stroke 
grestore
41.2 665.4 moveto
12 f0
(2) show
gsave 0.7 setlinewidth
 86.8 678.9 moveto
81 0 rlineto 0 -18.9 rlineto -81 0 rlineto closepath  stroke 
grestore
124.3 665.4 moveto
12 f0
(4) show
gsave 0.7 setlinewidth
 169.9 678.9 moveto
81 0 rlineto 0 -18.9 rlineto -81 0 rlineto closepath  stroke 
grestore
207.4 665.4 moveto
12 f0
(8) show
gsave 0.7 setlinewidth
 253 678.9 moveto
81 0 rlineto 0 -18.9 rlineto -81 0 rlineto closepath  stroke 
grestore
287.5 665.4 moveto
12 f0
(16) show
gsave 0.7 setlinewidth
 336.1 678.9 moveto
81 0 rlineto 0 -18.9 rlineto -81 0 rlineto closepath  stroke 
grestore
367.6 665.4 moveto
12 f0
(128) show
gsave 0.7 setlinewidth
 419.2 678.9 moveto
81 0 rlineto 0 -18.9 rlineto -81 0 rlineto closepath  stroke 
grestore
447.7 665.4 moveto
12 f0
(8192) show
gsave 0.7 setlinewidth
 3.7 657.9 moveto
81 0 rlineto 0 -18.9 rlineto -81 0 rlineto closepath  stroke 
grestore
41.2 644.4 moveto
12 f0
(3) show
gsave 0.7 setlinewidth
 86.8 657.9 moveto
81 0 rlineto 0 -18.9 rlineto -81 0 rlineto closepath  stroke 
grestore
124.3 644.4 moveto
12 f0
(9) show
gsave 0.7 setlinewidth
 169.9 657.9 moveto
81 0 rlineto 0 -18.9 rlineto -81 0 rlineto closepath  stroke 
grestore
204.4 644.4 moveto
12 f0
(27) show
gsave 0.7 setlinewidth
 253 657.9 moveto
81 0 rlineto 0 -18.9 rlineto -81 0 rlineto closepath  stroke 
grestore
287.5 644.4 moveto
12 f0
(81) show
gsave 0.7 setlinewidth
 336.1 657.9 moveto
81 0 rlineto 0 -18.9 rlineto -81 0 rlineto closepath  stroke 
grestore
364.6 644.4 moveto
12 f0
(2187) show
gsave 0.7 setlinewidth
 419.2 657.9 moveto
81 0 rlineto 0 -18.9 rlineto -81 0 rlineto closepath  stroke 
grestore
438.7 644.4 moveto
12 f0
(1594323) show
gsave 0.7 setlinewidth
 3.7 636.9 moveto
81 0 rlineto 0 -18.9 rlineto -81 0 rlineto closepath  stroke 
grestore
41.2 623.4 moveto
12 f0
(4) show
gsave 0.7 setlinewidth
 86.8 636.9 moveto
81 0 rlineto 0 -18.9 rlineto -81 0 rlineto closepath  stroke 
grestore
121.3 623.4 moveto
12 f0
(16) show
gsave 0.7 setlinewidth
 169.9 636.9 moveto
81 0 rlineto 0 -18.9 rlineto -81 0 rlineto closepath  stroke 
grestore
204.4 623.4 moveto
12 f0
(64) show
gsave 0.7 setlinewidth
 253 636.9 moveto
81 0 rlineto 0 -18.9 rlineto -81 0 rlineto closepath  stroke 
grestore
284.5 623.4 moveto
12 f0
(256) show
gsave 0.7 setlinewidth
 336.1 636.9 moveto
81 0 rlineto 0 -18.9 rlineto -81 0 rlineto closepath  stroke 
grestore
361.6 623.4 moveto
12 f0
(16384) show
gsave 0.7 setlinewidth
 419.2 636.9 moveto
81 0 rlineto 0 -18.9 rlineto -81 0 rlineto closepath  stroke 
grestore
435.7 623.4 moveto
12 f0
(67108864) show
gsave 0.7 setlinewidth
 3.7 615.9 moveto
81 0 rlineto 0 -18.9 rlineto -81 0 rlineto closepath  stroke 
grestore
41.2 602.4 moveto
12 f0
(5) show
gsave 0.7 setlinewidth
 86.8 615.9 moveto
81 0 rlineto 0 -18.9 rlineto -81 0 rlineto closepath  stroke 
grestore
121.3 602.4 moveto
12 f0
(25) show
gsave 0.7 setlinewidth
 169.9 615.9 moveto
81 0 rlineto 0 -18.9 rlineto -81 0 rlineto closepath  stroke 
grestore
201.4 602.4 moveto
12 f0
(125) show
gsave 0.7 setlinewidth
 253 615.9 moveto
81 0 rlineto 0 -18.9 rlineto -81 0 rlineto closepath  stroke 
grestore
284.5 602.4 moveto
12 f0
(625) show
gsave 0.7 setlinewidth
 336.1 615.9 moveto
81 0 rlineto 0 -18.9 rlineto -81 0 rlineto closepath  stroke 
grestore
361.6 602.4 moveto
12 f0
(78125) show
gsave 0.7 setlinewidth
 419.2 615.9 moveto
81 0 rlineto 0 -18.9 rlineto -81 0 rlineto closepath  stroke 
grestore
429.7 602.4 moveto
12 f0
(1220703125) show
gsave 0.7 setlinewidth
 3.7 594.9 moveto
81 0 rlineto 0 -18.9 rlineto -81 0 rlineto closepath  stroke 
grestore
41.2 581.4 moveto
12 f0
(6) show
gsave 0.7 setlinewidth
 86.8 594.9 moveto
81 0 rlineto 0 -18.9 rlineto -81 0 rlineto closepath  stroke 
grestore
121.3 581.4 moveto
12 f0
(36) show
gsave 0.7 setlinewidth
 169.9 594.9 moveto
81 0 rlineto 0 -18.9 rlineto -81 0 rlineto closepath  stroke 
grestore
201.4 581.4 moveto
12 f0
(216) show
gsave 0.7 setlinewidth
 253 594.9 moveto
81 0 rlineto 0 -18.9 rlineto -81 0 rlineto closepath  stroke 
grestore
281.5 581.4 moveto
12 f0
(1296) show
gsave 0.7 setlinewidth
 336.1 594.9 moveto
81 0 rlineto 0 -18.9 rlineto -81 0 rlineto closepath  stroke 
grestore
358.6 581.4 moveto
12 f0
(279936) show
gsave 0.7 setlinewidth
 419.2 594.9 moveto
81 0 rlineto 0 -18.9 rlineto -81 0 rlineto closepath  stroke 
grestore
426.7 581.4 moveto
12 f0
(13060694016) show
gsave 0.7 setlinewidth
 3.7 573.9 moveto
81 0 rlineto 0 -18.9 rlineto -81 0 rlineto closepath  stroke 
grestore
41.2 560.4 moveto
12 f0
(7) show
gsave 0.7 setlinewidth
 86.8 573.9 moveto
81 0 rlineto 0 -18.9 rlineto -81 0 rlineto closepath  stroke 
grestore
121.3 560.4 moveto
12 f0
(49) show
gsave 0.7 setlinewidth
 169.9 573.9 moveto
81 0 rlineto 0 -18.9 rlineto -81 0 rlineto closepath  stroke 
grestore
201.4 560.4 moveto
12 f0
(343) show
gsave 0.7 setlinewidth
 253 573.9 moveto
81 0 rlineto 0 -18.9 rlineto -81 0 rlineto closepath  stroke 
grestore
281.5 560.4 moveto
12 f0
(2401) show
gsave 0.7 setlinewidth
 336.1 573.9 moveto
81 0 rlineto 0 -18.9 rlineto -81 0 rlineto closepath  stroke 
grestore
358.6 560.4 moveto
12 f0
(823543) show
gsave 0.7 setlinewidth
 419.2 573.9 moveto
81 0 rlineto 0 -18.9 rlineto -81 0 rlineto closepath  stroke 
grestore
426.7 560.4 moveto
12 f0
(96889010407) show
pagelevel restore
showpage
%%EOF
