\relax 
\@writefile{toc}{\contentsline {section}{\numberline {1}Contractions}{1}{}\protected@file@percent }
\@writefile{toc}{\contentsline {subsection}{\numberline {1.1}Modern theory of continued fractions}{1}{}\protected@file@percent }
\newlabel{eqn:cf_1}{{1.2}{2}}
\newlabel{eqn:cf_2}{{1.3}{2}}
\newlabel{eqn:cf_3a}{{1.4}{2}}
\newlabel{eqn:cf_3b}{{1.5}{2}}
\@writefile{toc}{\contentsline {subsection}{\numberline {1.2}The Canonical Numerator and Denominator}{3}{}\protected@file@percent }
\newlabel{equ:ab_equation}{{1.10}{3}}
\newlabel{equ:ab_start}{{1.11}{3}}
\newlabel{equ:determinant}{{1.15}{3}}
\newlabel{equ:segment}{{1.16}{4}}
\@writefile{toc}{\contentsline {subsection}{\numberline {1.3}Convergence}{4}{}\protected@file@percent }
\@writefile{toc}{\contentsline {subsection}{\numberline {1.4}Linear Algebra and Continued Fractions}{5}{}\protected@file@percent }
\newlabel{equ:bq1}{{1.21}{6}}
\newlabel{equ:bq2}{{1.22}{6}}
\newlabel{equ:bernoulli1}{{1.24}{7}}
\newlabel{equ:bernoulli2}{{1.25}{7}}
\newlabel{equ:bernoulli1}{{1.27}{7}}
\newlabel{equ:bernoulli2}{{1.28}{7}}
\@writefile{toc}{\contentsline {subsection}{\numberline {1.5}F-Contraction}{9}{}\protected@file@percent }
\gdef \@abspage@last{11}
